{"status":200,"message":"请求成功","body":{"pageSize":20,"pageNum":0,"totalCount":170,"totalPage":9,"list":[{"id":1381,"circleId":0,"title":"乳腺结节","message":"没治疗过，偶尔吃逍遥丸，胸部偶尔会有点痒，月经来之前一个星期左右胸部会胀痛。","messageType":"text","userId":20616,"userName":"茉莉花茶","userHeadImg":"","replyCount":1,"createTime":"2016-02-22 13:38:03","currentUserPraise":0,"praiseCount":0,"praiseUserNames":"[]"},{"id":1375,"circleId":0,"title":"有乳腺增生可以怀孕吗","message":"我每次月经前后都会有双侧乳房胀痛的症状，这样的情况应该有两年以上，一直没有检查治疗。最近因为想怀二胎，所以今天去川北医学院附属医院进行了B超检查。超声结果提示：\r\n1、双侧乳腺低回声结节，考虑增生结节，拟BI-RADS分类：3类\r\n2、双侧乳腺超声所见，考虑增生性改变\r\n请问医生，我这样可以怀孕吗？如果怀孕会不会导致增生严重呢？","messageType":"text","userId":20616,"userName":"随意花","userHeadImg":"","replyCount":1,"createTime":"2016-02-22 12:42:37","currentUserPraise":0,"praiseCount":0,"praiseUserNames":"[]"},{"id":1374,"circleId":0,"title":"急性化脓乳腺炎","message":"之前化脓了，点滴几天，请了催乳师，后面去复查说没化脓，正常喂奶，宝宝两个月大，回来发现乳房还是刺痛","messageType":"text","userId":20616,"userName":"大可足以","userHeadImg":"","replyCount":1,"createTime":"2016-02-22 12:41:26","currentUserPraise":0,"praiseCount":0,"praiseUserNames":"[]"},{"id":1367,"circleId":0,"title":"浆性细胞侵润乳腺炎","message":"打了半月抗生素治疗、喝了10天的汤药，没见消退，昨天去做B超说里面化脓了已久形成漏斗了。","messageType":"text","userId":20616,"userName":"苹果绿","userHeadImg":"","replyCount":1,"createTime":"2016-02-19 10:46:19","currentUserPraise":0,"praiseCount":0,"praiseUserNames":"[]"},{"id":1362,"circleId":0,"title":"双乳增生内有三个比较大 可以不做手术嘛","message":"1月中旬时，自己手摸左乳有一粒跟米一样大的东西，然后1月底怀孕，有变大，当时查了宝宝不好，自动流产。自从1.30号来列假排了之后，自己关注乳房，小是小了一点，不过还是在的。有点不放心，所以2月18号医院查了下，说是里面至少有三个大的块。医生要求我手术拿掉，另外说要是自己没什么感觉，半年复查一次。","messageType":"text","userId":20616,"userName":"丘比特之箭","userHeadImg":"","replyCount":1,"createTime":"2016-02-18 14:57:53","currentUserPraise":0,"praiseCount":0,"praiseUserNames":"[]"},{"id":1358,"circleId":0,"title":"乳腺纤维腺瘤小不好手术，可以怀宝宝吗","message":"有时来月经胸部会疼，平常倒是不疼","messageType":"text","userId":20616,"userName":"星语","userHeadImg":"","replyCount":1,"createTime":"2016-02-17 13:15:32","currentUserPraise":0,"praiseCount":0,"praiseUserNames":"[]"},{"id":1355,"circleId":0,"title":"乳腺纤维瘤","message":"我体检出有乳腺增生 还有一个乳腺结节 因为月经不调子宫内膜增厚所以要吃半个月安宫黄体酮 听说这是孕激素 请问会对乳腺结节有影响吗？","messageType":"text","userId":20616,"userName":"大麦茶","userHeadImg":"","replyCount":1,"createTime":"2016-02-17 10:43:17","currentUserPraise":0,"praiseCount":0,"praiseUserNames":"[]"},{"id":1348,"circleId":0,"title":"乳腺炎发烧","message":"哺乳期宝宝60天，三天前发现乳房肿块，发烧39.5，挂水后发烧好转，吲哆美欣拴呐肛后好转，乳房自己热敷按摩效果不大，急求医生帮助！","messageType":"text","userId":20616,"userName":"双栖动物","userHeadImg":"","replyCount":1,"createTime":"2016-02-17 09:48:56","currentUserPraise":0,"praiseCount":0,"praiseUserNames":"[]"},{"id":1314,"circleId":0,"title":"乳腺纤维瘤治疗方法","message":"13年发现左乳有肿块并立即开刀去除了，14年一月复查发现又出现了，就没有立即开刀，一直是半年复查一次，到现在右乳又出现了三个，请医生给我一些治疗上的建议,有没有平时吃东西需要注意的，我这样的情况能通过不手术的方法去除吗","messageType":"text","userId":20616,"userName":"杨岚","userHeadImg":"","replyCount":1,"createTime":"2016-02-16 11:10:25","currentUserPraise":0,"praiseCount":0,"praiseUserNames":"[]"},{"id":1306,"circleId":0,"title":"右侧乳房乳腺炎有奶块一直不消","message":"右侧乳房有奶块，乳腺炎，奶水总是比左侧的少，乳房也比左侧小！一直坚持热敷，怎样消除奶块？怎样使右侧乳房大起来。","messageType":"text","userId":20616,"userName":"飘零的星","userHeadImg":"","replyCount":1,"createTime":"2016-02-16 11:10:10","currentUserPraise":0,"praiseCount":0,"praiseUserNames":"[]"},{"id":1307,"circleId":0,"title":"乳晕上长了个红胞起先很疼几天后就不疼了","message":"甫乳期长的，不过我都是吸奶器挤奶喂养的，刚开始很疼几天后就不疼了现在有点软软滴感觉胞里有浓，请问能弄破吗？我该怎么消除它呢，我有涂红霉素眼膏","messageType":"text","userId":20616,"userName":"忘忧草","userHeadImg":"","replyCount":1,"createTime":"2016-02-16 11:10:06","currentUserPraise":0,"praiseCount":0,"praiseUserNames":"[]"},{"id":1300,"circleId":0,"title":"断奶期间乳房有硬块","message":"断奶期间乳房有硬块，之前得过乳腺炎发烧，用药三天好了，需要怎么处理，用把奶挤出来吗","messageType":"text","userId":20616,"userName":"善良的哈特","userHeadImg":"","replyCount":1,"createTime":"2016-02-16 11:09:45","currentUserPraise":0,"praiseCount":0,"praiseUserNames":"[]"},{"id":1290,"circleId":0,"title":"多发性乳腺纤维瘤","message":"多发性乳腺纤维瘤，开刀了，现在又有了，备孕中，可以不手术治疗吗？怕二次手术影响哺乳","messageType":"text","userId":20616,"userName":"巴黎小情歌","userHeadImg":"","replyCount":1,"createTime":"2016-02-16 11:09:14","currentUserPraise":0,"praiseCount":0,"praiseUserNames":"[]"},{"id":1291,"circleId":0,"title":"前几天被压了下，胸部下围处，这几天有点痛起来了","message":"前几天胸部下围处被压了下，当时很痛一下，后来也没多想，这几天痛起来了，人动动或者打哈欠也会痛，不知道是怎么回事，是压伤了，还是乳房有问题？ \r\n不知道是骨头裂了还是伤筋或者乳房痛？","messageType":"text","userId":20616,"userName":"初夏","userHeadImg":"","replyCount":1,"createTime":"2016-02-16 11:09:08","currentUserPraise":0,"praiseCount":0,"praiseUserNames":"[]"},{"id":1278,"circleId":0,"title":"肉芽肿性乳腺炎后期如何治疗？","message":"2013年9月份发现左乳内有一肿块，之前无任何征兆，没有不适的感觉。当时感觉有点疼痛，比较坚硬，由于工作比较忙，就一直没有去医院检查过，到10月14日才去医院做B超检查，检查结果是4级，医生建议切除肿块化验，后在医院做肿块切除术，化验结果为良性，医生结论为肉芽肿性乳腺炎。","messageType":"text","userId":20616,"userName":"你不是我的菜","userHeadImg":"","replyCount":1,"createTime":"2016-02-16 11:08:42","currentUserPraise":0,"praiseCount":0,"praiseUserNames":"[]"},{"id":1281,"circleId":0,"title":"急！乳房包块","message":"乳房包块，有一个42mm乘以7mm包块，请问喝中药可以好吗？","messageType":"text","userId":20616,"userName":"水蓝色眼泪","userHeadImg":"","replyCount":1,"createTime":"2016-02-16 11:08:28","currentUserPraise":0,"praiseCount":0,"praiseUserNames":"[]"},{"id":1284,"circleId":0,"title":"小叶增生怎么办","message":"体检时候发现小叶增生 一般多久复查一次？最近发现左胸肿胀比较厉害，右胸无感觉","messageType":"text","userId":20616,"userName":"嗨皮小二","userHeadImg":"","replyCount":1,"createTime":"2016-02-16 11:08:13","currentUserPraise":0,"praiseCount":0,"praiseUserNames":"[]"},{"id":1285,"circleId":0,"title":"乳腺结节影响怀孕吗","message":"双乳结构清晰，內均探及散在片状低回声，双侧乳腺外上象限乳腺组织厚，左侧约1.0厘米，右侧约1.1厘米，右乳2点钟方向距乳头1厘米处探及低回声，大小约0.8*0.5*0.6厘米，边界清，內回声不均匀，左乳內未探及明显异常团快回声。\r\n双侧腋窝內均未探及明显异常肿大淋巴结回声。\r\nCDFI:低回声內见少许血流信号。\r\n\r\n下个月准备要小孩，现在这个右乳结节的情况，能要小孩吗？怀孕后结节还长吗？","messageType":"text","userId":20616,"userName":"缘来是你","userHeadImg":"","replyCount":1,"createTime":"2016-02-16 11:08:08","currentUserPraise":0,"praiseCount":0,"praiseUserNames":"[]"},{"id":1344,"circleId":0,"title":"乳腺癌术后，乳腺再造","message":"偶感隐痛，摸有硬块，是乳腺癌3期A，有淋巴转移，侵润性导管癌。","messageType":"text","userId":20616,"userName":"柔情似水","userHeadImg":"","replyCount":1,"createTime":"2016-02-16 10:14:02","currentUserPraise":0,"praiseCount":0,"praiseUserNames":"[]"},{"id":1341,"circleId":0,"title":"乳房脓肿手术","message":"做完乳房脓肿手术二十多天了，里面还有硬块，今天去做超声说里面还有脓腔，该怎么办","messageType":"text","userId":20616,"userName":"钢铁桃子","userHeadImg":"","replyCount":1,"createTime":"2016-02-15 11:00:34","currentUserPraise":0,"praiseCount":0,"praiseUserNames":"[]"}]},"timestamp":1456289495401,"exception":null}