{"status":200,"message":"请求成功","body":{"pageSize":20,"pageNum":0,"totalCount":109,"totalPage":6,"list":[{"id":1352,"circleId":0,"title":"别再傻傻地问大夫&ldquo;发物&rdquo;是什么啦 全都在这里","message":"　　看中医时，大夫会嘱咐病人忌食&ldquo;发物&rdquo;，理由是&ldquo;发物&rdquo;会加重病情。那&ldquo;发物&rdquo;究竟是什么，这种说法有道理吗?\r\n\r\n　　中医认为，食物之所以能防治疾病，是由于它本身特有的性味所决定的，这就是食物的&ldquo;食性&rdquo;。但如果不懂食性，对某些特殊体质的人或患者，食性就会诱发旧病，或加重已发疾病，或削弱药力，这是食物的&ldquo;发性&rdquo;，也就是民间所说的&ldquo;发物&rdquo;。\r\n\r\n　　按其来源可分为以下几类\r\n\r\n　　食用菌类\r\n\r\n　　主要有蘑菇、香菇等，过食这类食物易致动风生阳，触发肝阳头痛、肝风眩晕等宿疾，此外，还易诱发或加重皮肤疮疡肿毒。\r\n\r\n　　海腥类\r\n\r\n　　主要有带鱼、黄鱼、鲳鱼、蚌肉、虾、螃蟹等水产品，这类食品大多咸寒而腥，对于体质过敏者，易诱发过敏性疾病发作如哮喘、荨麻疹症，同时，也易催发疮疡肿毒等皮肤疾病。\r\n\r\n　　蔬菜类\r\n\r\n　　主要有竹笋、芥菜、南瓜、菠菜等，这类食物易诱发皮肤疮疡肿毒。\r\n\r\n　　果品类\r\n\r\n　　主要有桃子、杏、银杏、花生、芒果、杨梅、樱桃、荔枝、甜瓜等，前人曾指出，多食桃易生热，发痈、疮、疽、疖、虫疳诸患，多食杏生痈疖，伤筋骨。\r\n\r\n　　禽畜类\r\n\r\n　　主要有公鸡、鸡头、猪头肉、鹅肉、鸡翅、鸡爪、驴肉、獐肉、牛肉、羊肉、狗肉、鹅蛋、鸭蛋等，这类食物主动而性升浮，食之易动风升阳，触发肝阳头痛、肝风脑晕等宿疾，此外，还易诱发或加重皮肤疮疡肿毒。\r\n\r\n　　鸡蛋不宜多吃，一般一天不宜超过2个，尤其是肝炎、过敏、高血脂、高热、肾脏病、腹泻病人，更不宜多吃。原因是鸡蛋内含大量蛋白，但它们属于异性蛋白，有相当一部分人吃了异性蛋白质后出现病态反应。\r\n\r\n　　此外，属于发物的还有菜油、糟、酒酿、白酒、豌豆、黄大豆、豆腐、豆腐乳、蚕蛹及葱、蒜、韭菜等。有时还将荤腥膻臊之类食品一概视为发物。","messageType":"text","userId":20616,"userName":"美小护","userHeadImg":"","replyCount":0,"createTime":"2016-02-17 09:54:22","currentUserPraise":0,"praiseCount":0,"praiseUserNames":"[]"},{"id":1252,"circleId":0,"title":"五官变化的神奇暗示，与你有关!","message":"　　五官变化与健康\r\n\r\n　　(一)眼睛忽然看不见东西了，这是肝功能衰弱的标志\r\n\r\n　　(二)嗅觉越来越不灵了，这是肺功能衰弱的标志。\r\n\r\n　　(三)嘴唇感觉变迟钝了，这是胰脏功能衰弱的标志。胃部受到侵害时，嘴唇会变得干燥甚至破裂。\r\n\r\n　　(四)耳朵听不清声音了，这是肾功能衰弱的标志。肾功能受阻多.是坐着工作的人，所以，久坐不动的人更应注意。\r\n\r\n　　(五)味觉迟钝尝不出味道了，这是心功能衰弱的标志，当口中干涩，感觉不出食物的滋味时，要注意心脏发生病变。\r\n\r\n　　五官不适发出的疾病信号\r\n\r\n　　五官是人体的重要器官，它与身体的五脏是息息相关、唇齿相依的。如果五官感觉不舒服，那五脏也正逐步地发生功能衰弱，从而产生了疾病。\r\n\r\n　　1、眼睛忽然经常发花，眼角干涩、看不清东西。这是肝脏功能衰弱的先兆。\r\n\r\n　　如果按一按肝脏的四周，就会有发胀的感觉。这时除了及时就医外，还要注意用眼卫生，不要让眼睛太疲劳，有时用眼不当也会影响到肝脏。\r\n\r\n　　2、耳朵老是嗡嗡作响，声音也听不太清。这是肾功能在逐步衰退的信号，有时还会伴随着脚痛、腰痛、尿频等症状，工作过于劳累的人尤其是要注意，要做到劳逸结合，避免过度疲劳，少饮酒、少吃姜、辣椒等刺激性强的食物。\r\n\r\n　　3、嗅觉不灵敏，经常咳嗽，有时甚至呼吸困难。这是肺脏功能逐步衰弱的标志，病人首先要注意饮食，戒烟或者控制吸烟量，也不要和经常吸烟的人在一起。多吃新鲜瓜果和蔬菜，加强体质锻炼，防止肺部合并症发生。\r\n\r\n　　4、嘴唇感觉麻木，饮食减少，身体日见消瘦，这是胰脏功能在逐步衰减，这主要是由于饮食失调，饥饱不当所致，由于胰脏不好，便殃及胃，当胃受到损害时，嘴唇就会明显地变得干燥欲裂，麻木无味。这时除了调整饮食外，还要注意不要吃生冷、油腻的食品。\r\n\r\n　　5、味觉迟钝，尝不出味道，伴随而来的是心悸、梦多、失眠等症状，这就意味着心脏功能受到了损害。这是操劳过度所致，当口中干涩，舌苔厚重，尝不出食物的滋味时，尤其要警惕，防止心脏发生病变。\r\n\r\n　　五官的功能与脏腑关系密切\r\n\r\n　　面部五官对美容起着非常重要的作用，其外形直接关系人体的容貌美。五官的功能与脏腑关系密切。\r\n\r\n　　鼻、是呼吸通道，具有通气功能，而肺司呼吸，故称鼻为肺之窍。鼻还有主嗅觉的功能，鼻的通气和嗅觉功能正常与否均与肺脏功能有关，肺气和利，则呼吸通畅，嗅觉灵敏;肺气不利， 则鼻塞、流涕、嗅觉不灵。\r\n\r\n　　眼、眼睛的功能是主视觉，肝开窍于目，肝藏血，肝受血而能视，若肝脏功能正常则两目有神，若肝气不舒，肝血不足，则两目干涩，视力减退。中医还认为目的健美与五脏六腑的功能正常与否有直接关系。五脏六腑之精气充盈，视觉功能正常，五脏六腑精气不足，将会影响眼睛正常生理功能。\r\n\r\n　　口、是消化道入口，脾开窍于口，脾主运化，脾气健运，食欲旺盛，则口健美;若脾失健运， 生湿生热，则口唇生疮或口臭。\r\n\r\n　　耳、是听觉器官，而肾藏精，开窍于耳，耳的听觉功能靠肾精的充养。如肾精充盛，髓海得养，则听觉灵敏;如肾精不足，髓海失养，则双耳失聪，行动迟钝，给人以早衰的感觉。\r\n\r\n　　舌、是发音的重要器官，为心之外候，心主血脉，心的气血上通于舌，保持舌的正常生理功能。若心血充盈，心气健旺，则舌体活动自如，发音正常，语音清晰;若心血涩滞，心气不足，则舌强舌卷，发音困难，语音不清。\r\n\r\n　　总之，五官中的任何一个部位不舒服，不好看就说明其相应的脏腑出现了阴阳不平衡的状态。那么，从中医整体观的角度看，五脏六腑功能正常，在延缓容颜衰老，预防损美性疾病，保持身体健美，使青春长驻方面起着决定性作用。因此，要容貌美必须顾护脏腑正气，滋养脏腑阴精，以保持脏腑功能正常。\r\n\r\n　　友情提醒：当我们的身体出现了不舒服，不好看的时候，是脏腑向您发出的求救信号，不要不在意，否则将后悔末及。","messageType":"text","userId":20616,"userName":"美小护","userHeadImg":"","replyCount":0,"createTime":"2016-01-20 14:53:07","currentUserPraise":0,"praiseCount":0,"praiseUserNames":"[]"},{"id":1251,"circleId":0,"title":"长寿人都爱吃这几种食物，一般人我不告诉他！","message":"　　1、喝粥\r\n\r\n　　从饮食习惯看，长寿老人无一不喜欢喝粥。著名经济学家马寅初和夫人张桂君，夫妻双双都是百岁老人，两人尤其喜欢喝粥。每天早晨，把50克燕麦片加入250克开水，冲泡两分钟即成粥。天天如此，从不间断。\r\n\r\n　　2、小米是最佳补品\r\n\r\n　　老人最喜欢小米，把小米当成最好的滋补佳品。体弱生病的老人常用小米滋补身体。小米益五脏、厚肠胃、充津液、壮筋骨、长肌肉。\r\n\r\n　　3、玉米当主食\r\n\r\n　　玉米，是长寿老人离不开的主食。医学家研究发现，老玉米里含有大量的卵磷脂、亚油酸、谷物醇、维生素E，所以不容易发生高血压和动脉硬化。\r\n\r\n　　4、天天喝奶\r\n\r\n　　喝奶是长寿老人的普遍习惯，尤其是居住在城市的寿星更是这样。据说，美国现有25000名百岁寿星，其中80%为女性，她们的饮食习惯是普遍喝奶。\r\n\r\n　　5、每天吃一个鸡蛋\r\n\r\n　　每天吃一个鸡蛋，已成为长寿老人的普遍习惯。百岁寿星、著名经济学家陈翰笙博士根据营养学的安排，每天饮食坚持&ldquo;三个一&rdquo;：&ldquo;早上吃一个鸡蛋，晚上喝一杯奶，中间吃一个大苹果。&rdquo;他一日三餐多吃素，少吃肉，科学安排饮食，吃出了健康。\r\n\r\n　　6、偏爱红薯\r\n\r\n　　吃红薯是长寿老人的一大喜好。医学家说，红薯含有大量黏蛋白，故能防治肝脏和肾脏结缔组织萎缩，使人体免疫力增强。还具有消除活性氧的作用，避免了活性氧诱发癌症。又因红薯中含钙、镁较多，所以能防治骨质疏松症。\r\n\r\n　　7、豆腐人人都爱\r\n\r\n　　老人们普遍爱吃豆腐。豆腐主要成分是蛋白质和异黄酮。豆腐具有益气、补虚、降低血铅浓度，保护肝脏，促使机体代谢等功效，常吃豆腐有利于健康和智力发育。老人常吃豆腐对于血管硬化、骨质疏松等症有良好的食疗作用。\r\n\r\n　　8、喜爱大白菜\r\n\r\n　　大白菜，平常菜，老年人，最喜爱。大白菜含有矿物质、维生素、蛋白质、粗纤维、胡萝卜素。从药用功效说，大白菜有养胃、利肠、解酒、利便、降脂、清热、防癌等七大功效。\r\n\r\n　　9、冬天不离萝卜\r\n\r\n　　长寿老人冬天饮食不离萝卜。中医认为，它能化积滞、消食积，疗痰咳失音，治吐血、消渴、止痢、祛头痛、利小便等;生吃可以止渴、清内热、化痰止喘和助消化，蒸熟吃能消食健脾，并有补益功效。\r\n\r\n　　10、胡萝卜\r\n\r\n　　胡萝卜也是老人的心爱物。胡萝卜富含维生素A，有极为丰富的胡萝卜素。研究表明，胡萝卜能提供抵抗心脏病、中风、高血压及动脉硬化所需的各种营养成分。胡萝卜素只有溶解在油脂中才能被人体吸收。因此，有经验的老人常把胡萝卜切成片或丝同油炒，这样，胡萝卜素的保存率可达79%以上。切片和肉一起炖，胡萝卜素的保存率高达95%。","messageType":"text","userId":20616,"userName":"美小护","userHeadImg":"","replyCount":0,"createTime":"2016-01-20 14:53:02","currentUserPraise":0,"praiseCount":0,"praiseUserNames":"[]"},{"id":1040,"circleId":0,"title":"北大口腔医院","message":"口腔综合科许桐楷医生，怎么预约呢","messageType":"text","userId":24255,"userName":"璐子","userHeadImg":"http://wx.qlogo.cn/mmopen/PiajxSqBRaEKs9BD2xZOibkG6mThAudGLnFKEaBAEarbo2snoKCTGGytwQjDjq2uZID7cccmQbgptLOhAJyFydvQ/0","replyCount":0,"createTime":"2016-01-14 11:13:42","currentUserPraise":0,"praiseCount":0,"praiseUserNames":"[]"},{"id":1203,"circleId":0,"title":"雾霾来袭，您的头发有保护好吗？","message":"{\"text\":\"　　面对雾霾在一次的光临，我想许多人早已经提前做好了防范准备，包括脸上的任何一处都要包的很严实，来抵挡雾霾，然而往往忽略了头发的保护，那么面对这种情况，应该怎么护理预防呢?\\r\\n\\r\\n　　雾霾天气对头发有什么危害?\\r\\n\\r\\n　　1、头皮屑增多\\r\\n\\r\\n　　头发长期暴露在雾霾天气下，空气中的有毒颗粒会附着在头皮上，若不能及时清洗就会滋生大量的细菌，而细菌的大量繁殖会直接引起头皮角质层的过度增生，头皮角质层的过度增生自然就会直接导致头皮屑的增多，引起脱发。\\r\\n\\r\\n　　2、堵塞毛囊\\r\\n\\r\\n　　空气中的悬浮颗粒与污染物若久久不能散去，会藏匿在头皮里，甚至通过毛孔进入毛囊内部，直接侵蚀毛乳头细胞，阻碍了头发正常的营养供应，造成脱发。同时，有害物质还能通过毛囊孔进入人体，使人体内分泌系统和免疫系统遭到破坏，而内分泌的紊乱是引起脱发的一个重要原因。\\r\\n\\r\\n　　3、头发干枯\\r\\n\\r\\n　　由于头发被大量的粉尘污染物包裹，头发不能正常地进行新陈代谢，且营养无法有效输送，从而导致头发变得干枯，影响发质。\\r\\n\\r\\n　　在雾霾天气中如何保护头发?\\r\\n\\r\\n　　1、戴帽子\\r\\n\\r\\n　　就如同出门戴口罩一样，出门戴帽子能有效阻隔有害物质对头部毛囊的侵蚀，保护头皮健康。\\r\\n\\r\\n　　2、勤洗发\\r\\n\\r\\n　　雾霾天气时要注意保证头发的清洁，勤洗发、洗干净。洗发的同时需边搓边按摩，既能保持头皮清洁，又能使头皮活血。同时，选择洗发水时，应尽量选择天然温和、具有防脱功效的洗发水，避免使用强碱性洗发水，这类洗发水易使头发干燥头皮坏死。\\r\\n\\r\\n　　3、使用护发产品\\r\\n\\r\\n　　头发洗干净后，可以选择使用护发素、橄榄油等护发产品，让头发的毛鳞片在吹干的过程中闭合起来，形成一层厚重的保护膜，将损伤降到最低。\\r\\n\\r\\n　　4、饮食调理\\r\\n\\r\\n　　在日常饮食中，还要注意多食用有排毒功能的食品，比如山药，银耳，百合，胡萝卜，莲子等，这些食品有增加身体抵抗力的作用。此外，平时多食用一些水果，水果中富含的多种维生素对头发的发质有很大的益处。例如苹果、柚子、枇杷、梨等等。脱发者宜多食用富含蛋白质和钙、铁、硫等多种微量元素的食物，如黑豆、黑芝麻、蛋等，限制油腻、糖类和辛辣刺激性食物。\",\"images\":[],\"url\":\"http://219.232.241.117/M00/01/C0/2-jxdVZoBi3hWbvNAADClbAPAFk501x400x269.jpg\"}","messageType":"tp","userId":20616,"userName":"美小护","userHeadImg":"","replyCount":0,"createTime":"2016-01-14 11:11:32","currentUserPraise":0,"praiseCount":0,"praiseUserNames":"[]"},{"id":1218,"circleId":0,"title":"为什么你的肚子总爱&ldquo;唱歌&rdquo;呢？","message":"{\"text\":\"　　经常有人说和别人聊天的时候肚子老是会咕咕叫，真是尴尬的要命。那您知道你的肚子为什么会咕咕叫吗?今天小编就为您解密一下有关肠鸣危害的知识，感兴趣的朋友们赶快来看看哦。\\r\\n\\r\\n　　你的肚子为什么会咕咕叫?\\r\\n\\r\\n　　啊!肚子又在咕咕叫了。特别是正好在面试求职的时候，或者是和朋友共进午餐的时候出现肚子咕咕叫的情况真是件讨厌的事情。深情拥抱的时候，你的肚子突然发出令人尴尬的咕噜咕噜声。这究竟是为什么呢?现在就来给你答疑解惑，超有用的健康小常识告诉你!\\r\\n\\r\\n　　健康常识1\\r\\n\\r\\n　　其实这种现象不仅仅是你的胃部在召唤您，事实上是我们胃部前面的一个区域在作怪哦。\\r\\n\\r\\n　　在消化过程中，大肠和小肠之间的肌肉会收缩，推动食物和液体前进。\\r\\n\\r\\n　　当气体混进来之后，就会发出令人尴尬的咕隆声&mdash;&mdash;否则它会留在体内通过打嗝或者排气的方式排出体外。\\r\\n\\r\\n　　你在吃饭喝水时自然会咽下气体，但过量的气体会通过嚼口香糖，吸烟，吃硬糖，用吸管喝水，甚至在感冒或者过敏抽鼻子的时候，进入你的体内。\\r\\n\\r\\n　　比如说在您经常性的食用高纤维食物，比如说全麦面包和豆类食物，蔬菜类包括菜花和西兰花，饮料类包括苏打水和汽水，还有以及我们经常性会嚼的木糖醇口香糖都是会出现这种情况，并且长时间的还会加重。\\r\\n\\r\\n　　健康常识2\\r\\n\\r\\n　　这里还有一个重要提示：虽然人们普遍认为咕噜声暗示饥饿，但这并不是必然的。\\r\\n\\r\\n　　消化过程中的任何时间都可能会发出咕噜声，所以不要机械地臆断&ldquo;吃饭时间到了&rdquo;。在拿起食物之前，确保你是真的饿了。\\r\\n\\r\\n　　一般情况下的肚子叫不必担心，如果情况很糟糕或者同时伴有胃痛，恶心，呕吐或者体重减轻就一定要去看医生。\\r\\n\\r\\n　　严重的胃灼痛和打嗝可能是胃食管反流病(GERD)的信号，又或是心脏问题。不要忽视你的症状。\\r\\n\\r\\n　　健康常识3\\r\\n\\r\\n　　如果在办公室或者重要场合中发生此类事件，该如何处理呢?\\r\\n\\r\\n　　如果你确定声音很大，人们都会听到，只需简单的对身边的人说声&ldquo;对不起&rdquo;，然后继续你的谈话。\\r\\n\\r\\n　　不要对这个话题谈论太久，也不要就此开玩笑或者寻找借口，大家并不想了解你吃下红辣椒后的病史。在商业午餐中，谨慎行事，放弃奶油沙司和抱子甘蓝一类的食物。\\r\\n\\r\\n　　假如腹部的咕噜声来自他人&mdash;&mdash;比如你的老板?那么不要理睬，当做没有发生一样。\\r\\n\\r\\n　　这是好意，这也是礼仪。在你独自一人时，你可以咯咯笑一下，如果必须那样做，那不如直接与你的老板谈论几分钟&ldquo;腹鸣&rdquo;，这更有趣。\\r\\n\\r\\n　　肠鸣危害\\r\\n\\r\\n　　肠炎的症状很多，肠鸣大多不会单独存在。较多情况下是和腹胀、肠功能紊乱、腹痛、便秘、大便不成型、食欲低下等交叉并存。所以，要分析危害性就要从两方面谈起。\\r\\n\\r\\n　　第一：肠鸣表现单独存在，其病因主要是消化不良　　肠道产气过多，且不能顺畅循环。危害性较小。治疗上主要以收敛药或调理药物为主。\\r\\n\\r\\n　　第二：并存诸多症状，且发作时间累计一月以上者\\r\\n\\r\\n　　就预示肠炎、胃炎的存在。这类患者较容易出现消化不良，不能充分吸收营养，一方面造成营养的流失和必须营养的供给，势必给正常的生理需求造成较大的危害。\\r\\n\\r\\n　　尤其是女士和中老年朋友，一旦出现类似病情，轻则营养不良，重则脱水，引发失眠，肤色暗黄，消瘦，慢性病急性发作或加重病情。连续3月者，较容易导致恶性循环的胃肠炎症。给治疗带来较大的影响。\\r\\n\\r\\n　　肠鸣常见有的表现\\r\\n\\r\\n　　一、肠鸣音活跃表现为肠鸣音次数增多，响声也加大，随着肠鸣音的出现，自觉肚子里的肠子在活动。这种情况多见于肠炎、菌痢、阿米巴痢疾等频繁腹泻的疾病。\\r\\n\\r\\n　　二、肠鸣音亢进表现为肠鸣音次数有显著增多，每分钟达15次以上，音响明显增大，有时会出现&ldquo;气过水声&rdquo;，仿佛有股气流在水面上冲击而过时发出的声音。\\r\\n\\r\\n　　三、肠鸣音降低或消失与亢进相反，肠鸣音次数显著减少，音响低落，甚至根本听不到肠鸣音。这是由于腹腔里有炎症、损伤、出血等情况的不祥征兆。\\r\\n\\r\\n　　肠鸣的预防\\r\\n\\r\\n　　注意合理饮食，忌烟酒，辛辣，生冷，油腻，刺激的食物.少吃易产气的食物:如土豆,红薯等.可以吃些米粥，面食等容易消化的。\\r\\n\\r\\n　　肠鸣食疗秘方\\r\\n\\r\\n　　1. 小麦面粉取小麦面粉500克，白糖适量。面粉放锅内炒到焦黄，每次50克，加适量白糖，用开水调匀，早晚饭前服，3--5天有特效。忌吃香蕉、柿子、油腻。\\r\\n\\r\\n　　2. 大蒜米粥用粳米100克大蒜30克。大蒜去皮，切碎末，共加水1000毫升煮粥，早、晚温服，有止痢、止泻效果。\\r\\n\\r\\n　　结语：看了小编上文的介绍，您应该已经知道你的肚子为什么会咕咕叫了吧，希望您平时合理用食，希望您可以把今天学到的有关肠鸣的知识分享给身边的的好朋友们哦。\",\"images\":[],\"url\":\"http://219.232.241.117/M00/01/C1/2-jxdVZy0YnQsaXPAACZKe1O7jc672x400x271.jpg\"}","messageType":"tp","userId":20616,"userName":"美小编","userHeadImg":"","replyCount":0,"createTime":"2016-01-14 11:11:24","currentUserPraise":0,"praiseCount":0,"praiseUserNames":"[]"},{"id":1223,"circleId":0,"title":"做好四件事 让你远离乳腺疾病","message":"　　乳房是女性身体的一个重要器官，也是女性魅力的象征。可是这个部位却很容易遭受乳腺疾病的侵袭，发病与很多不良生活习惯有关。自己的生活习惯，激素类药物不能乱用，心情保持舒畅，坚持母乳喂养就能给女性塑造健康的乳房。下面，小编来介绍远离乳腺疾病就要养成4个好习惯。\r\n\r\n　　留意生活习惯\r\n\r\n　　医生在临床经验中发现，乳腺疾病的发病与很多不良生活习惯有关。以下因素，更值得所有的女性密切留意，并尽量做到让自己的生活方式更健康。\r\n\r\n　　1、保持正常体重：肥胖是患乳腺癌的高发因素。应尽可能减少高脂肪、高热量食物，特别是油炸食品的摄入。\r\n\r\n　　2、慎用激素类药物：有的女人为了使乳房丰满而服用激素类药物，结果导致内分泌紊乱，这就增加了乳腺疾病发生癌变的危险。\r\n\r\n　　3、保持良好心境：忧郁、紧张等情绪会引起脂肪栓水平增加。保持乐观放松的心态，减少烟酒咖啡等刺激性饮品的摄入对乳房健康非常重要。\r\n\r\n　　4、顺其自然做母亲：调查显示：乳腺癌患者中性功能低下、高龄未婚、高龄初产、孀居者的比率明显高于其他人群。因为这类人群体内的激素水平很难维持正常，虽生育但极少哺乳或从未哺乳也容易导致乳房积乳，患乳腺癌的危险性明显增加。建议女人们在最佳生育年龄生育(不要超过35岁)，并坚持母乳喂养。\r\n\r\n　　乳房的清洁与保养\r\n\r\n　　每天淋浴时应给乳房特别的关照，建议女性应该用专门的浴刷清洗乳头乳晕，这对先天性乳头凹陷的女性来讲尤为重要。然后以乳头为中心，用体刷对乳房做旋转式按摩，这不仅能刺激血液流通，还可轻微蜕掉上层的死皮。另外，还可以用冷热水交替冲洗乳房，以增强乳房的血液循环，这对保持乳房的弹性和挺拔很有帮助。","messageType":"text","userId":20616,"userName":"美小护","userHeadImg":"","replyCount":0,"createTime":"2016-01-14 11:11:21","currentUserPraise":0,"praiseCount":0,"praiseUserNames":"[]"},{"id":1224,"circleId":0,"title":"除了肺，雾霾还会伤眼睛?","message":"今天北京的PM2.5指数再度破表，有朋友就说了：&ldquo;出门都能感觉到空气辣眼睛、嗓子难受，赶紧把口罩带上了&rdquo;确实，雾霾天出门可以给鼻子嘴巴戴上口罩，那眼睛呢，该怎么办?\r\n\r\n我们先来看看为什么会觉得辣眼睛呢?\r\n\r\n据报道，雾霾的主要成分是粉尘、颗粒物、二氧化硫酸、碱、盐、胺、酚等。当空气中这些物质浓度过高，必然会使得暴露其中的眼球表面接触到的物质也增多。而其中的粉尘、颗粒物等可能会附着在眼球表面，从而对眼表组织产生刺激性，进一步导致炎症的发生，出现眼红、干涩、畏光、眼睛痒等症状。对于本身患有干眼症、结膜炎等基础眼病的患者，还可能加重已有症状。\r\n\r\n那怎样才能减少雾霾对眼睛的可能伤害呢?\r\n\r\n首先，就是要减少接触。尽量避免外出，屋内使用合格的空气净化器等。必须要外出，建议配戴防护眼镜。防护眼镜，也叫护目镜，一般可以防金属颗粒、碎屑等冲击，还可以防液体滴溅。看着蛮高大上，其实挺便宜，一般也就几十块钱，但是非常实用。\r\n\r\n除了雾霾天外出，平时在家钻孔或做其它手工活均可配戴用来保护眼睛。甚至做家务切洋葱戴之可防流泪，炒菜可防油溅。不过防护眼镜的款式有好几种，建议还是使用这种全包围式的。当然，很多人可能接受不了戴护目镜出门，觉得有点奇怪，毕竟不是每个雾霾天都是PM2.5指数爆表。\r\n\r\n一般的轻中度雾霾天里，虽然可能眼睛没有&ldquo;辣&rdquo;那么强烈的刺激感，但这些物质对眼睛的影响仍然可能存在。因此，还是要尽快减少这些物质在眼表的停留。\r\n\r\n建议可以考虑以下方法：\r\n\r\n1.多眨眼睛\r\n\r\n通过眨眼动作，让泪液带走附在眼球表面上的粉尘和颗粒物。如果能配合打哈欠的动作，刺激产生更多的泪液效果更好。2.适当使用滴眼液，比如人工泪液等\r\n\r\n点入人工泪液，再转动一下眼球让滴眼液流出来，相当于冲洗了一下眼表。这里想补充一点，没有感染的情况下，不建议使用抗生素眼药水。\r\n\r\n3.蒸汽熏蒸\r\n\r\n平时喝热水或者冲泡绿茶、菊花等的时候，不妨利用蒸汽熏蒸眼睛，这样不仅能增加眼表湿度，清除眼表附着的物质，还能缓解干眼和视疲劳症状。但是要注意蒸汽的温度以及与眼睛的距离，小心烫伤。\r\n\r\n雾霾远期对眼睛可能造成什么样的损害，比如会不会增加翼状胬肉等疾病的发病可能，目前还没有确切的研究发表。因此，我们还是要努力从现下就开始做好防护工作。","messageType":"text","userId":20616,"userName":"美小护","userHeadImg":"","replyCount":0,"createTime":"2016-01-14 11:10:45","currentUserPraise":0,"praiseCount":0,"praiseUserNames":"[]"},{"id":1229,"circleId":0,"title":"女性生育能力强不强，看这４个地方！","message":"　　女性是一个神秘的生命体，女性身上的每一处都值得探索。除了魅力体现的部位以外，女性更应该关注这4个地方，因为它们是对生育能力的直接体现。\r\n\r\n　　1、嘴唇黯淡干燥\r\n\r\n　　天气干燥或者饮食过于重口味后，我们都能感受到嘴唇对于水分的需求。然而，嘴唇干燥除了缺水之外，还有可能是缺少维生素A。这种情况下，女性需要额外补充维生素A，日常饮食可以多吃鸡蛋、乳制品、动物肝脏等，备孕女性如果缺少维生素A，胎儿有缺陷的几率会增加。\r\n\r\n　　2、指甲小太阳少\r\n\r\n　　手指甲上的小太阳是人体健康的象征，一般情况下，小太阳越多，女性越易受孕。小太阳越少，表明人体的各方面情况越差，如免疫力低下，体质差，容易精神不济等。很多女性都注意到一个现象，自己手指上的小太阳一开始是全的，慢慢的，小太阳越来越少。其实，小太阳受到诸多因素的影响，熬夜、生活习惯差、纵欲过度等，都会让小太阳变少。小太阳若只在双手拇指上出现，或者十指一个小太阳也没有，那么这类女性多半体质偏寒，气色差，且往往难以受孕。\r\n\r\n　　3、手指无名肿胀\r\n\r\n　　如果来大姨妈时，女性发现自己手指有肿胀的情况，那么可能是甲状腺功能衰退了。这属于内分泌性疾病，这类女性怀孕后，胎儿大脑发育会受到影响。女性如果发现这种情况，一方面要减少盐分的摄入，另一方面要及早就医，治疗好之后再备孕。\r\n\r\n　　4、私处毛发过旺\r\n\r\n　　女性私处毛发紧系健康，如果女性发现大腿内侧毛发过旺，可能是多囊卵巢综合征。正常女性私处毛发呈倒三角，如果毛发形状演变成正方形，那么患病可能性高。这种情况下，女性体内激素紊乱，排卵也会受到影响。","messageType":"text","userId":20616,"userName":"美小编","userHeadImg":"","replyCount":0,"createTime":"2016-01-14 11:10:23","currentUserPraise":0,"praiseCount":0,"praiseUserNames":"[]"},{"id":1230,"circleId":0,"title":"每天毛巾这么用，居然会毒害全家！","message":"　　毛巾是我们日常生活中的必需品。正确使用毛巾，毛巾就可以发挥很多功效。但是，如果不注意清洗毛巾的话，就可能给我们的健康带来极大危害，而最常见的一种问题就是毛巾异味。那么，毛巾异味代表着什么，毛巾有异味怎么办呢?\r\n\r\n　　使用不当，伤身致癌害健康\r\n\r\n　　毛巾必须按用途来分，男性至少有三条，洗脸、洗脚和洗澡毛巾分开使用;女性应至少准备四条，在洗脸、洗脚和洗澡的基础上，再加一条清洗私处的毛巾。\r\n\r\n　　很多毛巾是经过染色的。新买的毛巾，第一次下水有轻微褪色，是正常的。如果持续褪色，就有两种可能，一种是这条毛巾是再加工产品，另一种是毛巾使用了劣质染料。\r\n\r\n　　劣质染料当中含有芳香胺等致癌物质。当人体与含有芳香胺的毛巾长期接触，芳香胺容易被皮肤吸收，诱发癌症或过敏。所以，拿劣质染料染出来的毛巾洗脸，就和用工业废水洗脸一样，会严重损害皮肤，危害健康。\r\n\r\n　　&ldquo;抗菌&rdquo;毛巾大部分不抗菌\r\n\r\n　　如果毛巾纤维本身有抗菌功能，那么毛巾就真正具有了抗菌功效，但目前这种纤维很少，市面上所谓的&ldquo;抗菌&rdquo;毛巾大部分不抗菌。想要毛巾真正杀菌，就要专人专用、专巾专用。每周对毛巾进行高温消毒处理，放在微波炉里加热几分钟就行，并且最好三个月换一条新毛巾。\r\n\r\n　　毛巾是毎个人清洁时的必需品，但你一定会发现，毛巾用了一段时间后，不仅会变硬，还会变得油腻发黏，并会散发出一股怪味。\r\n\r\n　　有人认为，毛巾出现上述情形时，只要用清水洗净拧干就OK，然而结果是，这样清洁反而可能让毛巾变得愈来愈恶心。\r\n\r\n　　为何毛巾会如此恶心?\r\n\r\n　　1.毛巾发黄、发臭的原因\r\n\r\n　　(1)当我们用毛巾擦拭流汗出油的皮肤后，如果没有定期清洗干净，毛巾就容易囤积脂肪和污垢，时间久了就容易感觉粘粘的，干了就会泛黄或产生异味。\r\n\r\n　　(2)如果浴室环境不通风，且每次使用毛巾后又未完全拧干，这时水分会囤积在毛巾的底部，下缘便会产生发霉现象，毛巾自然就会产生异味。\r\n\r\n　　2.毛巾为什么会变硬\r\n\r\n　　(1)毛巾使用时间过久，毛羽会脱落，当毛巾的毛羽脱落后只剩下骨杆时，毛巾就会变硬了。\r\n\r\n　　(2)毛巾没有完全清洗干净，纤维中还留有肌肤长时间残留的污垢。\r\n\r\n　　(3)毛巾洗完后毛圈纠结，没有抖一抖就直接曝晒。\r\n\r\n　　(4)水中游离的钙、镁离子与肥皂结合，黏附在毛巾上，也是导致毛巾变硬的一大主因。\r\n\r\n　　3. 洗脸的毛巾单独用\r\n\r\n　　建议洗脸用的毛巾最好独立出来，不要再用来擦汗或擦身体，只在洗脸后擦脸使用。因为使用毛巾擦拭身体时，身上的分泌物、细菌、污垢、油脂容易附着在毛巾上。而不管是擦脸还是擦身体的毛巾，最好每周都要彻底清洗一遍，才不会让毛巾上的细菌伤害肌肤。\r\n\r\n　　毛巾该如何清洁?\r\n\r\n　　1. 高温消毒最有效\r\n\r\n　　清洗毛巾时，可将毛巾用开水煮10分钟，然后再用清洁剂清洗，洗完后拿到通风处晾干。如果觉得用开水煮有点麻烦，也可以在清洗完毛巾之后，拿到微波炉微波个5分钟，同样能够达到高温消毒的效果。\r\n\r\n　　2.加盐巴或碱性清洁剂清洗\r\n\r\n　　可在水中加入碱性清洁剂或用盐巴搓洗，洗完之后再用清水冲洗干净，便可改善毛巾变黄或有异味的情形。\r\n\r\n　　3. 用醋与苏打粉去味\r\n\r\n　　若想去除毛巾的异味，可在洗衣机中加入两匙白醋以及适量热水。这时候，不要加洗衣精、柔软剂等洗涤剂，直接启动洗衣机清洗。清洗程序结束后，再加入少许洗衣皂或苏打粉再洗一次，便可去除大部分异味与黏腻。\r\n\r\n　　但要特别注意，在去味前先检查洗衣机本身有没有异味，如果洗衣机有味道的话，可先加入热水和两杯漂白剂来清洗洗衣机，不然就白忙一场啦!\r\n\r\n　　而洗衣机关上后，里面的环境潮湿密封，是霉菌生长的极好条件，所以一旦洗衣机停止运行，就要立刻拿出毛巾，这样附在毛巾纤维上的微生物就不会继续生长了。在晒毛巾前，最好用力甩毛巾20下再曝晒喔!\r\n\r\n　　使用毛巾的注意事项\r\n\r\n　　1.用完毛巾后，就要把毛巾晾干，以免毛巾发霉，尤其是浴巾。\r\n\r\n　　2.如果浴室内有窗户，白天最好开窗通风，让阳光晒进来，藉此可避免毛巾晾着还发霉的情况。此外，毛巾尽量不要阴干，要让阳光曝晒才有杀菌的作用，也才不会有味道。\r\n\r\n　　多久换一条毛巾?\r\n\r\n　　许多人会等毛巾用到破了、变黄了才更换，其实是不对的。建议平时最好同时淮备二到三条毛巾替换使用，最好三个月左右换一条新毛巾，而且每周最好用热水烫毛巾一次，确保毛巾干净没霉斑。\r\n\r\n　　想想，毛巾可是用来清洁你宝贵的肌肤的，如果用跟抹布一样脏的毛巾擦你的脸，光是想像一下就让人感觉恶心吧!所以，在清洗或更换毛巾这方面可要勤劳点，别再用脏毛巾擦你的脸和身体啦!","messageType":"text","userId":20616,"userName":"美小编","userHeadImg":"","replyCount":0,"createTime":"2016-01-14 11:10:20","currentUserPraise":0,"praiseCount":0,"praiseUserNames":"[]"},{"id":1237,"circleId":0,"title":"生病竟成了好事！这5种病其实是在排毒","message":"　　这5种病常患竟然有益健康?\r\n\r\n　　1 、咳嗽\r\n\r\n　　咳嗽很常见，它其实是人体的一种保护性措施，有助于消除自外界侵入呼吸道的异物或分泌物、消除呼吸道刺激因子。如果一咳嗽就用止咳药物，则会把加重炎症的脏东西都滞留在呼吸道里不利于炎症的消除。\r\n\r\n　　2 、呕吐\r\n\r\n　　呕吐是为了排出对人体有害的物质，以减少吸收，是机体的一种防御反射。若此时采用药物止吐，会使有害物质滞留在体内， 危害健康。若呕吐反复发作或伴有腹痛、发烧等症状时，应立即就医。\r\n\r\n　　3、 腹泻\r\n\r\n　　腹泻尤其是排泄物有异臭时，往往是身体正在排出来自食物或其他方面的毒素。遇到腹泻时，应采取因势利导法，例如喝一杯热水，帮助肠道尽快排完毒素。如果有严重的腹泻，便意频频、排便量少、肛门部有痉挛性疼痛，或排泄物带血，或同时伴有腹痛、发烧、呕吐等症状时，应该立即就医。\r\n\r\n　　4、 流鼻血\r\n\r\n　　我们可以把流鼻血看作是机体自我&ldquo;去火&rdquo;的一种方式。流鼻血时大可不必担心， 它会在短时间内自行终止。\r\n\r\n　　但是，如果鼻子大量流血不止时应立即就医，这往往是体内血管硬化、血压过高等疾病引起的。\r\n\r\n　　5、 发烧\r\n\r\n　　体温一旦超过了摄氏37度就属于发烧。如果在发烧一开始就服退烧药，反而可能加重病情。若体温高于摄氏38.5度，或持续低烧不退，或伴有发疹、剧烈头痛、关节痛、痉挛症状时，应立即就医。","messageType":"text","userId":20616,"userName":"美小护","userHeadImg":"","replyCount":0,"createTime":"2016-01-14 11:09:52","currentUserPraise":0,"praiseCount":0,"praiseUserNames":"[]"},{"id":1242,"circleId":0,"title":"破坏免疫力的5个坏习惯，你中了几个？","message":"　　哪些生活小细节在破坏我们的免疫力?哪些方法才能更有效地增强免疫力?专家将此归结为一句话&ldquo;好好吃饭，好好睡觉，少生闲气&rdquo;&mdash;&mdash;这是提升免疫力最好的&ldquo;自然疗法&rdquo;!\r\n\r\n　　坏习惯一　节食偏食\r\n\r\n　　不少人为了减肥而节食，势必导致一些维生素和微量元素的缺乏，不能为身体提供所需要的营养。没有足够的营养，细胞功能就会受损，并累及免疫系统。自然疗法：合理膳食　　均衡的营养对预防疾病、增强抵抗力有着重要作用，适量的蛋白质、维生素E、维生素C、胡萝卜素、维生素B、锌、硒、钙、镁等物质可增加人体免疫细胞的数量。\r\n\r\n　　遵守老祖宗说的&ldquo;五谷为养、五果为助、五畜为益、五菜为充&rdquo;最为科学。\r\n\r\n　　&ldquo;五谷为养&rdquo;是指小米、水稻、玉米、豆类、薯类等作为养育人体之主食。&ldquo;五果为助&rdquo;系指枣、李、杏、栗、桃等水果、坚果，有助养身和健身之功。\r\n\r\n　　&ldquo;五畜为益&rdquo;指牛、犬、羊、猪、鸡等禽畜肉食，对人体有补益作用，能增补五谷主食营养之不足。\r\n\r\n　　&ldquo;五菜为充&rdquo;指各类菜蔬，能营养人体、充实脏气，使体内各种营养素更完善，更充实。\r\n\r\n　　坏习惯二　压力过大\r\n\r\n　　现今社会，上班族在社会上打拼，人们不仅承受着职场压力和生活压力，甚至有些压力来自子女和家庭。长期压力会导致抗体水平下降，使人体对感染的抵抗力降低。\r\n\r\n　　自然疗法：运动中释放适量的锻炼不仅能缓解压力，还能促进人体的循环和内分泌，促进人体脏器机能的提升，维持在一个较高的水平，从而有效地提高人体自身的免疫力。免疫力有效提高，有压力也能更好承受，这是一个良性循环的作用。\r\n\r\n　　舞蹈、太极拳、气功、健身操等都能很好的缓解压力、提高人体免疫能力。在锻炼时一定要注意适度、持续和循序渐进，在过度疲劳、休息不足时不应强迫锻炼，否则免疫力不升反降。如果太累了，只是缓慢的散散步，也是缓解的好方法。\r\n\r\n　　坏习惯三　多愁善感\r\n\r\n　　多愁善感是机体免疫系统致命的克星，紧张、抑郁和焦虑的情绪使身体的神经系统受到压抑，免疫细胞活性下降，免疫力降低。\r\n\r\n　　自然疗法：调整情绪焦虑和悲观的情绪会给人体的植物神经造成不良影响，从而影响到内分泌系统和免疫系统，造成一段时间内人体免疫力急剧下降。\r\n\r\n　　人们常见的&ldquo;上火&rdquo;长口疮，实际上就是焦虑的情绪影响到人体免疫力，而使长时间潜伏在人体中的病菌得到了机会。\r\n\r\n　　坏习惯四　睡眠不足\r\n\r\n　　不能保证充足的睡眠，也会使身体的免疫系统受到伤害。睡眠是免疫系统加快运作并进行自我修复的最好时机，缺乏充分的休息，从而失去了免疫系统自我修复的最好时机。\r\n\r\n　　自然疗法：借助睡眠睡眠时人体会产生一种称为胞壁酸的睡眠因子，此因子促使白血球增多，巨噬细胞活跃，肝脏解毒功能增强，从而将侵入的细菌和病毒消灭。\r\n\r\n　　每天保持7至8小时睡眠是不可缺少的，如有条件，每天辅以半小时至1小时的午睡，将更有益于我们的健康。\r\n\r\n　　坏习惯五　内部污染\r\n\r\n　　吸烟、饮酒等不良嗜好就是内部污染，常饮酒、吸烟的人血液中维生素C的含量明显偏低。如身体内维生素C长期处于低水平而得不到补充，就会引发疾病。\r\n\r\n　　自然疗法：补充维生素C是保持身体健康不可缺少的营养素，它具有诸多功能，如防止维生素A和维生素E的氧化，并在其协同作用下促进损伤组织的愈合，以及预防感冒、提高机体免疫力等。\r\n\r\n　　大部分水果中都含维生素C，含量较高的有橙子、苹果、香蕉、木瓜、芒果等，蔬菜有西红柿、辣椒、苦瓜、青蒜、油菜、菜花及各种深色叶菜。","messageType":"text","userId":20616,"userName":"美小护","userHeadImg":"","replyCount":0,"createTime":"2016-01-14 11:09:49","currentUserPraise":0,"praiseCount":0,"praiseUserNames":"[]"},{"id":1241,"circleId":0,"title":"腿抽筋是咋回事?教你4招告别抽筋","message":"　　许多人都有过在小腿抽筋的经历。抽筋虽然持续的时间不长，但是发作过后肌肉的不舒服的感觉或者触痛可以持续几个小时。抽筋虽然不是啥大事儿，但是如果连续发作确实会影响睡眠，降低生活质量。所以一定要重视。\r\n\r\n　　小腿为啥会抽筋?\r\n\r\n　　1、疲劳过度\r\n\r\n　　在剧烈运动或者长时间的走路、爬山登高时，小腿很容易疲劳，局部代谢产物乳酸也会增多，肌肉就会受刺激，容易发生抽筋。\r\n\r\n　　如果像上面说的白天腿部的运动量过大或用力过度，肌肉就会很累很累，到了晚上如果这种肌肉紧张的状态还没有改善，或者乳酸没及时代谢掉，就可能让你睡觉的时候还抽筋。\r\n\r\n　　2、寒冷刺激\r\n\r\n　　大家可能都遇到过的就是睡觉时候没盖好被子，脚和腿部蹭蹭受凉，就会引起抽筋，有时候甚至会把人疼醒。\r\n\r\n　　此外就是冬天在寒冷环境下锻炼，没做好准备活动，或者夏天游泳时候水温太低都会引起腿抽筋。\r\n\r\n　　3、缺钙\r\n\r\n　　在肌肉收缩过程中，钙离子起着重要作用。当血液中钙离子浓度太低时，肌肉就比正常情况更容易兴奋，兴奋过头就痉挛了。\r\n\r\n　　这种情况多见于缺钙的孕妇、绝经后的女性和老年人;生长迅速、容易缺钙的青少年;还有节食减肥的人，这类人主要是因为钙的摄入不足。\r\n\r\n　　4、睡眠姿势不好\r\n\r\n　　如长时间仰卧，使被子压在脚面，或长时间俯卧，使脚面抵在床铺上，迫使小腿某些肌肉长时间处于绝对放松状态，引起肌肉&ldquo;被动挛缩&rdquo;。\r\n\r\n　　5、血流因素\r\n\r\n　　对于腿部有静脉曲张或深部静脉血栓的患者，如果睡觉时长时间保持某种姿势，腿部静脉受压，回流受阻，造成血流淤滞，当血液淤滞达到一定程度时，就会引起腿部肌肉的痉挛。\r\n\r\n　　6、疾病和药物因素\r\n\r\n　　在患有某些疾病时，发生腿抽筋的概率增加，称为继发性腿抽筋，如多种肌肉病、外周神经病、尿毒症、糖尿病、甲状腺疾病、低镁、低钙、低钾等。\r\n\r\n　　另外，服用某些药物，也可以诱发继发性腿抽筋。比如激素，吗啡，治疗胃病的西米替丁，降血压的利尿剂、尼非地平，降胆固醇的他汀类药，精神科用药锂盐等。\r\n\r\n　　小腿突然抽筋，咋办?\r\n\r\n　　当发生抽筋时，需要&ldquo;反其道而行之&rdquo;&mdash;&mdash;就是朝作用力相反的方向扳脚趾并坚持1~2分钟以上。\r\n\r\n　　具体的说，如果是小腿后面的肌肉抽筋，可一方面扳脚使脚板翘起，一方面尽量伸直腿，或者双手使劲按摩小腿肚子也能见效;当小腿前面的肌肉抽筋时，可压住脚板并用力扳屈脚趾。\r\n\r\n　　怎么才能不抽筋?\r\n\r\n　　无论何种原因引起小腿抽筋，都会产生不适或疼痛的感觉，或者会影响正常睡眠。因此必须引起足够的重视，怎么才能不抽筋呢?\r\n\r\n　　1、锻炼前要准备好\r\n\r\n　　如果经常抽筋的话，还是要加强体育锻炼的，锻炼时要充分做好准备活动，让身体都活动开，这时下肢的血液循环顺畅，再参加各种激烈运动或比赛，就能避免腿抽筋。\r\n\r\n　　但是也不要走路或者运动时间过长，如果太疲劳反而会刺激到小腿肌肉哦。\r\n\r\n　　2、张嘴吃药\r\n\r\n　　如果钙的摄入不足，优先考虑补钙。钙片神马的最好睡前吃，像含钙丰富的食物如虾皮、牛奶、豆制品等平常也可以多吃点。\r\n\r\n　　当补充钙剂后仍不能缓解抽筋症状时，可尝试补充维生素E，每日2次，连续2周。如果症状减轻，可以改为每天1次。\r\n\r\n　　3、保暖按摩做起来\r\n\r\n　　平常也得注意保暖，不要让局部着凉，睡觉时也得盖好被子不要乱踢，此外还可以在睡前给下肢按按摩等。\r\n\r\n　　4、睡前别瞎兴奋\r\n\r\n　　睡眠前，避免饮酒、喝咖啡和可乐等具有兴奋中枢神经作用的饮料，也不要看有提神作用的书籍，不看刺激性强的影视作品，到有睡意时再上床睡觉。如果发作比较频繁，就应及时去医院就诊，查明病因尽早治疗哦。","messageType":"text","userId":20616,"userName":"美小护","userHeadImg":"","replyCount":0,"createTime":"2016-01-14 11:09:45","currentUserPraise":0,"praiseCount":0,"praiseUserNames":"[]"},{"id":1244,"circleId":0,"title":"挂号","message":"挂西京医院眼科","messageType":"text","userId":27437,"userName":"“此情可待”","userHeadImg":"http://wx.qlogo.cn/mmopen/OE1xmHUbpEnB8B4ia3mZqTvicAoyQbWbicDmF6bpLwiaPH2lS0ECBLQF60bD1bFtrTdkeg7JxMflQTXagJSq17mxJZ630tgia8FOm/0","replyCount":0,"createTime":"2016-01-08 17:24:28","currentUserPraise":0,"praiseCount":0,"praiseUserNames":"[]"},{"id":1243,"circleId":0,"title":"俞叔叔北京天坛医院&ldquo;一日游&rdquo;","message":"　　千里迢迢由内蒙赶过来的俞总，操着浓重的蒙腔诉说着父亲的病情，他年事已高的父亲应该是得了脑瘤，无奈之下来京城著名的北京天坛医院就诊，而我们公司是专业的高端医疗服务机构，作为公司的一名成员我很荣幸的成为俞总父子的专业医疗助理，负责他们全程的医疗服务，即帮助了自己，同时也能让他人享受我们的全程服务。\r\n\r\n　　我们约好早上八点在天坛医院门诊见，来到医院，车水马龙，人头攒动，来医院看病的患者场景都很难以想象，由于提前预约，我们的号是特需专家门诊，可以直接拿号看病，这样一来也省去了不少没必要的麻烦。\r\n\r\n　　我们直接上了5楼特需诊室，排队拿了号，此时护士已经开始叫号了，等了大概快一个小时，才看见王主任过来，瞬间我看见俞总焦急的脸上漏出一丝丝笑容。随后，我扶着俞叔叔进了诊室，王主任认真的看着片子初步断定俞叔叔的脑瘤是良性的，还算比较乐观，王主任说，您需要再在我们医院做一次检查，这样能更好的断定您的病情，由于检查分为两种，一种是特需，一种是普通，特需的就是快，价格高，普通的慢，有的检查还的预约，俞总想了想二话没说特需吧，这样能快点安排手术，由于特需检查在本楼层就能检查，这样一来大大的方便了我们的检查过程。这也是医院非常人性的地方。\r\n\r\n　　然而看着其他人为挂不上号失落的眼神，俞总说幸亏有你们公司给予我们的帮助，我们才能顺利看上专家号，这一点让我们感到非常欣慰。\r\n\r\n　　作为一名医疗助理也让我体会到了，医生跟患者的不容易，同时也体现了医生对患者的职责，都是希望让患者早日解除病痛，重获幸福!如今.移动医疗服务已经得到市场认可，医疗机构必须开始认真应对互联网的挑战。如挂号，收费，陪诊等服务项目已经进入我们的生活中，然而许多患者更希望把时间花在纯粹的就诊过程上，减少其他环节带来的时间成本的损耗。\r\n\r\n　　在我和俞叔叔在聊天的过程中了解到，老人也很激动说幸亏有你们公司的这项服务，才能让我们顺利的在北京看上病，我非常满意你们的工作，陪诊虽然累点，苦点，只要能帮助到患者也是我们医务工作者最大的幸福。","messageType":"text","userId":20616,"userName":"美小护","userHeadImg":"","replyCount":0,"createTime":"2016-01-08 15:34:56","currentUserPraise":0,"praiseCount":0,"praiseUserNames":"[]"},{"id":1168,"circleId":0,"title":"开发宝宝脑力的11个方法","message":"1.多和宝宝说话。2.多抚摸宝宝。3.多回应宝宝的呼唤。4.多让宝宝动手动眼。5.多爬。6.多搭积木。7.多看图大、画面清晰、色彩鲜艳的书。8.多给宝宝唱儿歌。9.多和宝宝一起整理玩具。10.多让宝宝玩&quot;肮脏的游戏&quot;，如玩沙子、泥巴等。11.让宝宝多一点情感体验。","messageType":"text","userId":20616,"userName":"美小护","userHeadImg":"","replyCount":0,"createTime":"2015-12-18 14:51:47","currentUserPraise":0,"praiseCount":0,"praiseUserNames":"[]"},{"id":1167,"circleId":0,"title":"不得糖尿病的8个妙诀","message":"如今糖尿病患者越来越多，很多人担心自己也成为其中一员。解放军总医院老年内分泌科田慧教授指出，以下8个好习惯能帮你远离糖尿病。1.减轻体重。2.每天走路30分钟。3.适量喝咖啡。4.选择高纤维素食物。5.经常深呼吸。6.保证充足睡眠。7.规律生活作息。8.45岁以后关注血糖。","messageType":"text","userId":20616,"userName":"美小护","userHeadImg":"","replyCount":0,"createTime":"2015-12-18 14:51:44","currentUserPraise":0,"praiseCount":0,"praiseUserNames":"[]"},{"id":1178,"circleId":0,"title":"这15道小点心做给孩子吃，好吃的让你难以想象","message":"一、【香蕉蛋羹】\r\n\r\n原料：香蕉1根，牛奶100ml，鸡蛋1个。\r\n\r\n【做法】:\r\n\r\n1、香蕉去皮用勺子压成泥。\r\n\r\n2、鸡蛋磕入碗中打散，搅拌均匀。\r\n\r\n3、往蛋液中加入香蕉泥和牛奶一起拌匀。\r\n\r\n4、蒸锅加水烧开，将调好的香蕉蛋奶液入锅用中火蒸熟即可。\r\n\r\n二、【自己做香蕉饼】\r\n\r\n准备材料：香蕉、面粉少许、鸡蛋一个、牛奶少量、糖少许、盐一点点、 油一小勺(可省)。将香蕉压成泥，和所有材料混合。\r\n\r\n【做法】:\r\n\r\n1、将材料调成饼糊;\r\n\r\n2、平底锅放一点油，将香蕉糊倒进锅里，小火煎;\r\n\r\n3、煎香一面后，翻一面继续煎。超级简单哦~\r\n\r\n三、【芹菜叶鸡蛋饼】\r\n\r\n1、芹菜叶摘好洗净切碎;\r\n\r\n2、放入大碗中加入面粉，放入鸡蛋、白糖，调成糊状;\r\n\r\n3、平底锅烧热，放少许油;\r\n\r\n4、放入面糊，扒平煎至微黄;\r\n\r\n5、反面煎至微黄;\r\n\r\n6、放在砧板上切开装盘。\r\n\r\n四、【火腿番茄奶酪鸡蛋卷】\r\n\r\n1、鸡蛋打成蛋液，入盐拌匀，火腿肠切丝，奶酪片切丝，番茄洗净去皮切小丁;\r\n\r\n2、油热入火腿丝，番茄丁翻炒，炒软后盛出;\r\n\r\n3、平底锅烧热转中小火入蛋液，旋转锅子摊成蛋饼;\r\n\r\n4、蛋饼底部刚凝固表面未凝固时，铺上炒好的火腿番茄丝和奶酪丝，马上用铲子卷成卷即可。\r\n\r\n五、【苹果蛋饼】\r\n\r\n原料：苹果2个，鸡蛋4个，鲜奶100毫升，糖25克，色拉油适量;\r\n\r\n【做法】:\r\n\r\n1、将鸡蛋打散，加入鲜奶及糖搅拌;\r\n\r\n2、将苹果去核，切成花片;\r\n\r\n3、烧热平底锅，加入油，再将蛋浆倒入锅中用小火煎;\r\n\r\n4、将苹果片铺在蛋饼上，待底部熟后再翻转煎，然后装盘。","messageType":"text","userId":20616,"userName":"美小护","userHeadImg":"","replyCount":0,"createTime":"2015-12-18 14:51:20","currentUserPraise":0,"praiseCount":0,"praiseUserNames":"[]"},{"id":1212,"circleId":0,"title":"南京军区总院","message":"南京军区总院普外科朱维铭挂号","messageType":"text","userId":26785,"userName":"夏殇","userHeadImg":"http://wx.qlogo.cn/mmopen/Q3auHgzwzM6bDx5cuyvNXypWiaML2mYsTn5C2In3gxBjAkvicibhfTTxVXehOibZCicwWjtNicibLenJePkzkKgE9d0Oc6XStU6QpDfNLp4ibGJLR3A/0","replyCount":0,"createTime":"2015-12-11 13:15:26","currentUserPraise":0,"praiseCount":0,"praiseUserNames":"[]"},{"id":1159,"circleId":0,"title":"温胃化瘀&ldquo;山楂糯米粥&rdquo;","message":"糯米50~100克，淘洗干净，山楂10个，洗净，去核，切成大块，放砂锅中，加水适量，以小火将粥煮熟，即可趁热食用。冬季经常食用本品，具有健脾养胃，温中化瘀功效。对心脑血管疾病患者尤为适宜。","messageType":"text","userId":20616,"userName":"美小护","userHeadImg":"","replyCount":1,"createTime":"2015-11-17 15:48:17","currentUserPraise":0,"praiseCount":0,"praiseUserNames":"[]"}]},"timestamp":1456289626341,"exception":null}