{"status":200,"message":"请求成功","body":{"pageSize":20,"pageNum":1,"totalCount":55,"totalPage":3,"list":[{"id":1,"imAccount":"114","name":"王建六","phone":"18901086568","headImg":"http://219.232.241.117/M00/01/2C/2-jxdVRpuDXxYC1iAAB-eDPwmxs389.png","age":44,"sex":1,"status":1,"hospital":"北京大学人民医院","place":"主任医师","specialty":"妇科肿瘤：宫颈癌，子宫内膜癌和卵巢癌的诊断与治疗。 \n盆底疾病：尿失禁，子宫脱垂，阴道壁膨出等诊断与治疗。 \n妇科内镜：腹腔镜和宫腔镜手术","price":299,"introduce":"专业领域\r\n妇科肿瘤：宫颈癌，子宫内膜癌和卵巢癌的诊断与治疗\r\n盆底疾病：尿失禁，子宫脱垂，阴道壁膨出等诊断与治疗\r\n妇科内镜：腹腔镜和宫腔镜手术\r\n\r\n个人信息\r\n王建六，妇产科科主任，医学博士，妇产科教授，博士生导师,北京大学人民医院妇产科教研室主任\r\n中华医学会妇产科分会委员兼秘书\r\n中华医学会妇产科分会女性盆底学组-副组长\r\n中华医学会妇科肿瘤分会青年委员会常务副主任委员","appraise":4.0,"docType":1,"geography":"111","advisoryType":1,"serviceIntroduce":"111","depId":2,"updateTimestamp":null,"createtime":1415898000000,"buyCount":0,"replyCount":0,"serviceRange":null},{"id":115,"imAccount":"231","name":"孙秀丽","phone":"18611661856","headImg":"http://219.232.241.117/M00/01/2C/2-jxdVRpt2njIaN3AAB2E99NQdc201.png","age":33,"sex":2,"status":1,"hospital":"北京大学人民医院","place":"主任医师","specialty":"擅长子宫脱垂、尿失禁，少儿妇科及妇科肿瘤的诊治、擅长女性盆底重建手术、宫腹腔镜。","price":99,"introduce":"孙秀丽 北京大学人民医院 主任医师/副教授\r\n擅长子宫脱垂、尿失禁，少儿妇科及妇科肿瘤的诊治、擅长女性盆底重建手术、宫腹腔镜。\r\n中国女医师协会妇产科专家委员会委员兼秘书         \r\n北京乳腺病防治协会专家委员会委员                \r\n《中国妇产科临床杂志》英文编辑                  \r\n《中国综合临床杂志》编委及审稿专家               \r\n《现代妇产科进展杂志》审稿专家                  \r\n国家自然科学基金及北京市自然基金项目评阅人. ","appraise":4.0,"docType":1,"geography":"111","advisoryType":1,"serviceIntroduce":"111","depId":2,"updateTimestamp":null,"createtime":1415462400000,"buyCount":0,"replyCount":0,"serviceRange":null},{"id":154,"imAccount":"255","name":"刘曼玲","phone":"15611223341","headImg":"http://219.232.241.117/M00/01/2E/2-jxdVRsVFWzC83zAACsDFXaMZk539.png","age":33,"sex":2,"status":1,"hospital":"西安医学院附属医院","place":"主任医师","specialty":"儿科学硕士学位，熟练掌握儿科保健、儿科常见病、多发病的诊疗，尤其对新生儿疾病诊疗具有丰富经验。","price":99,"introduce":"刘曼玲  主任医师  西安医学院附属医院\r\n擅长儿科学硕士学位，熟练掌握儿科保健、儿科常见病、多发病的诊疗，尤其对新生儿疾病诊疗具有丰富经验。\r\n \r\n\r\n","appraise":4.0,"docType":1,"geography":"111","advisoryType":111,"serviceIntroduce":"111","depId":6,"updateTimestamp":null,"createtime":1414944000000,"buyCount":0,"replyCount":0,"serviceRange":null},{"id":143,"imAccount":null,"name":"陈勇","phone":"15611223341","headImg":"http://219.232.241.117/M00/00/36/2-jv6FHI_AeCWN9sAACKPtTm4Q0786.png","age":33,"sex":1,"status":1,"hospital":"北京中医医院","place":"主任医师","specialty":"擅治内科、妇儿科常见病，在急慢性肝炎、胆囊炎、早期肝硬化、肝硬化腹水、重症肝炎等病诊治方面多有建树。对急慢性哮喘、心脏病、脾胃病、发热症、顽固性头痛、月经不调、小儿外感等均有较好疗效。最为患者爱戴和业界称颂的是，为一脾切除的女患者治好了长达15年的不孕症，创造了“无脾生子”的医学奇迹。","price":99,"introduce":"医承三世，汇通三家，肝病妙手，妇幼名医。\r\n陈勇，出生于中医世家，其父陈东阜师承宫廷御医，解放后在西单设“东阜医寓”，就医者众。自6岁始即在家父启蒙下诵习医典，渐染芝兰。弱冠之年考入当代著名中医教育家、伤寒大家陈慎吾创办的汇通中医讲习所学习，4年后以优异成绩毕业。1961年选入北京中医院工作，由于功底坚实精勤不倦，受一代明医、肝病泰斗关幼波先生所器重，遂为关老开山弟子，随师侍诊31载尽得真传。而立之年，与国医泰斗、风湿病大家焦树德先生之长女结为伉俪，从此执半子半徒之礼，修习内科疑难病诊治，深得堂奥。陈老医承三世，汇通三家医脉，集腋成裘，学验俱丰。85-86年，由其承担的国家“七五”科技攻关课题“关幼波电脑诊治胃脘痛专家系统”被评为北京市科技进步二等奖。","appraise":4.0,"docType":1,"geography":"111","advisoryType":111,"serviceIntroduce":"111","depId":5,"updateTimestamp":null,"createtime":1414939465000,"buyCount":0,"replyCount":0,"serviceRange":null},{"id":141,"imAccount":"259","name":"贾海骅","phone":"15611223341","headImg":"http://219.232.241.117/M00/01/2E/2-jxdVRsYknjR5YhAAC2uWwuPNs043.png","age":33,"sex":1,"status":1,"hospital":"中国中医科学院","place":"主任医师","specialty":"擅长：1、男性生殖系统疾病，早泄短期康复、少精症、弱精症、阳痿、慢性前列腺炎、前列腺增生症、遗精、不射精、阳强、囊汗、性焦虑、性恐惧及其它性心理疾病。2、皮肤病，急慢性荨麻疹、各型湿疹、牛皮癣、各型痤疮、黄褐斑、过敏性皮肤病、扁平疣及各种癣类。3、疲劳综合症、抑郁症、顽固性失眠、肝病、慢性腹泻、肥胖症、小儿多动症。","price":99,"introduce":"主任医师，毕业于中国中医科学院。\r\n\r\n","appraise":4.0,"docType":3,"geography":"111","advisoryType":111,"serviceIntroduce":"111","depId":5,"updateTimestamp":null,"createtime":1414939464000,"buyCount":0,"replyCount":0,"serviceRange":null},{"id":165,"imAccount":"275","name":"蔺莉","phone":"15611223341","headImg":"http://219.232.241.117/M00/01/2E/2-jxdVRu8rewd-fYAACkqlNmm34990.png","age":44,"sex":1,"status":1,"hospital":"北京友谊医院","place":"主任医师","specialty":"各种产科合并症和并发症、产科疑难重症的诊治，并擅长常见妇科疾病、妇科疑难病症的诊治。","price":99,"introduce":"蔺莉 北京友谊医院 主任医师\r\n\r\n擅长：各种产科合并症和并发症、产科疑难重症的诊治，并擅长常见妇科疾病、妇科疑难病症的诊治。\r\n\r\n现任中华医学会围产医学分会常务委员。                \r\n北京围产医学常务委员。                          \r\n北京市孕产保健专家委员会委员。                  \r\n北京市产前诊断专家委员会委员。                    \r\n中国医师协会北京医师学会副会长。                \r\n首都医科大学妇产科学系副主任。                  \r\n中国微创外科杂志编委。                          \r\n中国妇产科临床杂志编委。                        \r\n中华围产医学杂志特邀编委。\r\n\r\n\r\n\r\n\r\n\r\n\r\n\r\n\r\n\r\n\r\n\r\n\r\n\r\n\r\n\r\n","appraise":4.0,"docType":1,"geography":"111","advisoryType":1,"serviceIntroduce":"111","depId":2,"updateTimestamp":null,"createtime":1414861200000,"buyCount":0,"replyCount":0,"serviceRange":null},{"id":170,"imAccount":"280","name":"郑郑","phone":"15611223341","headImg":"http://219.232.241.117/M00/01/2F/2-jxdVRu9jvBxoJ6AAB6TqxctIQ267.png","age":44,"sex":1,"status":1,"hospital":"中日友好医院","place":"副主任医师","specialty":"产科疑难杂症诊断及处理，对妇产科常见病、疑难病的诊治有丰富的临床经验。","price":99,"introduce":"郑郑 中日友好医院 副主任医师\r\n\r\n擅长：产科疑难杂症诊断及处理，对妇产科常见病、疑难病的诊治有丰富的临床经验。\r\n\r\n学习工作经历：1986年毕业于卫生部直属山东医科大学医疗系，从事妇产科临床工作至今。2004年始从事产科工作至今。期间曾多次进修学习。\r\n\r\n\r\n\r\n\r\n\r\n\r\n\r\n\r\n\r\n\r\n\r\n\r\n\r\n\r\n\r\n\r\n\r\n\r\n\r\n\r\n","appraise":4.0,"docType":1,"geography":"111","advisoryType":1,"serviceIntroduce":"111","depId":2,"updateTimestamp":null,"createtime":1414861200000,"buyCount":0,"replyCount":0,"serviceRange":null},{"id":161,"imAccount":"271","name":"徐云","phone":"15611223341","headImg":"http://219.232.241.117/M00/01/2E/2-jxdVRu8DrT-zcbAAC7vrjIgok072.png","age":44,"sex":1,"status":1,"hospital":"北京天坛医院","place":"副主任医师","specialty":"神经内分泌、生殖内分泌、垂体瘤、颅咽管瘤术前、术后内分泌功能评估；垂体微腺瘤诊治。","price":99,"introduce":"徐云 北京天坛医院 副主任医师\r\n\r\n擅长：不孕症、妇科内分泌疾病、计划生育，擅长神经内分泌、生殖内分泌、垂体瘤、颅咽管瘤术前、术后内分泌功能评估；垂体微腺瘤诊治 \r\n\r\n\r\n\r\n\r\n\r\n\r\n","appraise":4.0,"docType":1,"geography":"111","advisoryType":1,"serviceIntroduce":"111","depId":2,"updateTimestamp":null,"createtime":1414861200000,"buyCount":0,"replyCount":0,"serviceRange":null},{"id":157,"imAccount":"267","name":"杨保军","phone":"15611223341","headImg":"http://219.232.241.117/M00/01/2E/2-jxdVRu7jvit7z1AADNtfVwBrA692.png","age":44,"sex":1,"status":1,"hospital":"北京天坛医院","place":"主任医师","specialty":"子宫肌瘤、子宫内膜息肉、子宫纵隔、子宫粘连等宫腔镜手术。不孕、异常子宫出血、宫颈病变、子宫脱垂的治疗","price":99,"introduce":"杨保军 北京天坛医院 主任医师\r\n\r\n擅长：子宫肌瘤、子宫内膜息肉、子宫纵隔、子宫粘连等宫腔镜手术。不孕、异常子宫出血、宫颈病变、子宫脱垂的治疗\r\n\r\n1990年本科毕业于中山医科大学。2000～2003硕士研究生毕业于首都医科大学临床医学院。\r\n\r\n1989～现在：北京天坛医院妇产科医生。专业特长：妇科常见病微创治疗：子宫肌瘤、卵巢肿瘤、子宫内膜息肉、子宫粘膜下肌瘤、子宫纵隔的微创治疗。宫颈病变的诊治。子宫脱垂的治疗。计划生育、高危妊娠相关生殖健康的咨询。\r\n\r\n\r\n","appraise":4.0,"docType":1,"geography":"111","advisoryType":1,"serviceIntroduce":"111","depId":2,"updateTimestamp":null,"createtime":1414861200000,"buyCount":0,"replyCount":0,"serviceRange":null},{"id":166,"imAccount":"276","name":"林华","phone":"15611223341","headImg":"http://219.232.241.117/M00/01/2F/2-jxdVRu81fQlaBXAACK6c2QCWM795.png","age":44,"sex":1,"status":1,"hospital":"中日友好医院","place":"主任医师","specialty":"妇科肿瘤的诊治，如腹腔镜手术，经阴道手术及各种疑难手术，特别是可规范化完成宫颈癌根治术，子宫内膜癌分期手术、早期卵巢癌分期手术等腹腔镜四级手术。","price":99,"introduce":"林华 中日友好医院 主任医师\r\n\r\n擅长：妇科肿瘤的诊治，如腹腔镜手术，经阴道手术及各种疑难手术，特别是可规范化完成宫颈癌根治术，子宫内膜癌分期手术、早期卵巢癌分期手术等腹腔镜四级手术。对于卵巢癌细胞减灭术、子宫肌瘤、子宫腺肌症、子宫内膜异位症、宫颈癌、卵巢良性肿瘤等疾病腹腔镜治疗也有着丰富的临床经验。\r\n\r\n学习工作经历：1982年毕业于中国医科大学，2005年通过了中国政法大学医疗法律系硕士研究生课程。从事妇产科专业已近30年，先后多次赴日本、美国学习。是一名有责任心、有技术和良好医德的妇科医生，赢得了广大患者的信任。 \r\n\r\n\r\n\r\n\r\n\r\n\r\n\r\n\r\n\r\n\r\n\r\n\r\n\r\n\r\n\r\n\r\n\r\n\r\n","appraise":4.0,"docType":1,"geography":"111","advisoryType":1,"serviceIntroduce":"111","depId":2,"updateTimestamp":null,"createtime":1414861200000,"buyCount":0,"replyCount":0,"serviceRange":null},{"id":162,"imAccount":"272","name":"王越","phone":"15611223341","headImg":"http://219.232.241.117/M00/01/2F/2-jxdVRu85PAwAkmAAC163c5-Lk804.png","age":44,"sex":1,"status":1,"hospital":"北京天坛医院","place":"副主任医师","specialty":"妇产科常见疾病，妇产科超声。","price":99,"introduce":"王越 北京天坛医院 副主任医师\r\n\r\n擅长：妇产科常见疾病，妇产科超声\r\n\r\n1984年毕业于北京医学院（现名北京大学医学部）\r\n1984～1994年：北京天坛医院妇产科医生\r\n1994～1996年：卫生部援几内亚医疗队妇产科医生\r\n1996～2000年：北京天坛医院妇产科医生\r\n2000～2004年：北京天坛医院妇产科医生，专业妇产科超声工作\r\n2004～2007年：北京天坛医院超声科医生，妇产科超声为主项\r\n2008～现在：北京天坛医院妇产科医生，妇产科教学主管 \r\n\r\n\r\n\r\n\r\n\r\n","appraise":4.0,"docType":1,"geography":"111","advisoryType":1,"serviceIntroduce":"111","depId":2,"updateTimestamp":null,"createtime":1414861200000,"buyCount":0,"replyCount":0,"serviceRange":null},{"id":158,"imAccount":"268","name":"李晶华","phone":"15611223341","headImg":"http://219.232.241.117/M00/01/2E/2-jxdVRu7pyguu33AAC52ulNG2I015.png","age":44,"sex":1,"status":1,"hospital":"北京天坛医院","place":"副主任医师","specialty":"妇产科常见病及多发病的诊治，尤其是宫颈病变，卵巢良性肿瘤，子宫肌瘤，盆腔子宫内膜异位症，子宫内膜癌，卵巢癌等疾病的诊治","price":99,"introduce":"李晶华 北京天坛医院 副主任医师\r\n\r\n擅长：妇产科常见病及多发病的诊治，尤其是宫颈病变，卵巢良性肿瘤，子宫肌瘤，盆腔子宫内膜异位症，子宫内膜癌，卵巢癌等疾病的诊治\r\n\r\n毕业于首都医科大学，从事妇产科专业近20年。专业：妇产科常见病及多发病的诊治，尤其是宫颈病变，卵巢良性肿瘤，子宫肌瘤，盆腔子宫内膜异位症，子宫内膜癌，卵巢癌等疾病的诊治。完成开腹手术及妇科恶性肿瘤的化疗。应用妇科内窥镜（宫腔镜，腹腔镜）技术治疗子宫肌瘤，纵隔子宫，宫腔粘连，功能性子宫出血，绝经后出血，宫颈病变，不孕症，卵巢肿瘤，盆腔子宫内膜异位症，宫外孕等妇科疾病。从事妇科肿瘤（尤其是宫颈病变）妇科内窥镜专业的临床及基础研究，发表专业论文近20篇。\r\n\r\n\r\n\r\n","appraise":4.0,"docType":1,"geography":"111","advisoryType":1,"serviceIntroduce":"111","depId":2,"updateTimestamp":null,"createtime":1414861200000,"buyCount":0,"replyCount":0,"serviceRange":null},{"id":167,"imAccount":"277","name":"张军","phone":"15611223341","headImg":"http://219.232.241.117/M00/01/2F/2-jxdVRu9BmByXL-AABzzWBUClc680.png","age":44,"sex":1,"status":1,"hospital":"北京安贞医院","place":"主任医师","specialty":"子宫肌瘤、卵巢囊肿、生殖道畸形等；妇科恶性肿瘤：卵巢癌、子宫内膜癌、宫颈癌等；妇科盆底与泌尿手术：女性尿失禁、子宫脱垂、阴道壁膨出等。","price":99,"introduce":"张军 北京安贞医院 主任医师\r\n\r\n擅长：妇科微创手术：子宫肌瘤、卵巢囊肿、生殖道畸形等；妇科恶性肿瘤：卵巢癌、子宫内膜癌、宫颈癌等；妇科盆底与泌尿手术：女性尿失禁、子宫脱垂、阴道壁膨出等。\r\n\r\n1989年毕业于河北医科大学临床医学专业。1989年至1993年：北京妇产医院,妇产科住院医师。1993年至今：北京安贞医院妇产科，历任妇产科住院医师、主治医师、副主任医师、主任医师，2005年始任科副主任，2011年始任科主任。2004年被聘为首都医科大学妇产科副教授，2012年聘为全科妇科教授。\r\n\r\n\r\n\r\n\r\n\r\n\r\n\r\n\r\n\r\n\r\n\r\n\r\n\r\n\r\n\r\n\r\n\r\n\r\n","appraise":4.0,"docType":1,"geography":"111","advisoryType":1,"serviceIntroduce":"111","depId":2,"updateTimestamp":null,"createtime":1414861200000,"buyCount":0,"replyCount":0,"serviceRange":null},{"id":163,"imAccount":"273","name":"李燕蓉","phone":"15611223341","headImg":"http://219.232.241.117/M00/01/2E/2-jxdVRu8OuhBxNSAACxk6EBL9U300.png","age":44,"sex":1,"status":1,"hospital":"北京天坛医院","place":"副主任医师","specialty":"各种妇科及产科手术及危重病人的管理。","price":99,"introduce":"李燕蓉 北京天坛医院 副主任医师\r\n\r\n擅长：各种妇科及产科手术及危重病人的管理\r\n\r\n1971年出生，自参加工作以来，一直从事妇产科一线临床工作。熟练掌握各种妇科及产科手术及危重病人的管理。承担了首都医科大学临床五系及口腔系的临床教学任务，多次并评为优秀教师。参加了城市医生到农村的服务工作，在山村医院为农村妇女服务，获得了好评。协助妇科主任多次开办宫腔镜学习班，参与产科高危妊娠管理等多项研究工作，并撰写论文三篇。\r\n\r\n\r\n\r\n\r\n\r\n\r\n\r\n\r\n\r\n\r\n","appraise":4.0,"docType":1,"geography":"111","advisoryType":1,"serviceIntroduce":"111","depId":2,"updateTimestamp":null,"createtime":1414861200000,"buyCount":0,"replyCount":0,"serviceRange":null},{"id":159,"imAccount":"269","name":"曹彤","phone":"15611223341","headImg":"http://219.232.241.117/M00/01/2E/2-jxdVRu70ijWBVUAACvF1hfir8852.png","age":44,"sex":1,"status":1,"hospital":"北京天坛医院","place":"副主任医师","specialty":"妇产科常见病，高危妊娠的管理，高危产科及难产的处理","price":99,"introduce":"曹彤 北京天坛医院 副主任医师\r\n\r\n擅长：妇产科常见病，高危妊娠的管理，高危产科及难产的处理\r\n\r\n1996年本科毕业于山东医科大学临床医学系，2005年研究生毕业于郑州大学医学院。从事妇产科临床工作18年。\r\n\r\n\r\n\r\n","appraise":4.0,"docType":1,"geography":"111","advisoryType":1,"serviceIntroduce":"111","depId":2,"updateTimestamp":null,"createtime":1414861200000,"buyCount":0,"replyCount":0,"serviceRange":null},{"id":168,"imAccount":"278","name":"李春东","phone":"15611223341","headImg":"http://219.232.241.117/M00/01/2F/2-jxdVRu9LnRw4h7AACGJxzbQX4865.png","age":44,"sex":1,"status":1,"hospital":"空军总医院","place":"副主任医师","specialty":"妇科良恶性肿瘤，盆腔器官脱垂，张力尿失禁等常见妇科疾病的诊治。","price":99,"introduce":"李春东 空军总医院 副主任医师\r\n\r\n擅长：擅长妇科良恶性肿瘤，盆腔器官脱垂，张力尿失禁等常见妇科疾病的诊治。\r\n\r\n\r\n\r\n\r\n\r\n\r\n\r\n\r\n\r\n\r\n\r\n\r\n\r\n\r\n\r\n\r\n\r\n","appraise":4.0,"docType":1,"geography":"111","advisoryType":1,"serviceIntroduce":"111","depId":2,"updateTimestamp":null,"createtime":1414861200000,"buyCount":0,"replyCount":0,"serviceRange":null},{"id":164,"imAccount":"274","name":"韩丹","phone":"15611223341","headImg":"http://219.232.241.117/M00/01/2E/2-jxdVRu8VyBmIFrAADF2l61-D0030.png","age":44,"sex":1,"status":1,"hospital":"北京天坛医院","place":"副主任医师","specialty":"妇科宫腔镜、腹腔镜等妇科良性疾病的微创治疗。熟悉产科常见病诊疗及危急重症的抢救。","price":99,"introduce":"韩丹 北京天坛医院 副主任医师\r\n\r\n擅长：妇科宫腔镜、腹腔镜等妇科良性疾病的微创治疗。熟悉产科常见病诊疗及危急重症的抢救。\r\n\r\n1998年中国医科大学临床专业毕业1998年北京天坛医院妇产科住院医师2004晋升主治医师2008从师于精于妇科内镜的冯力民教授获得硕士学位2013年晋升副主任医师\r\n\r\n\r\n\r\n\r\n\r\n\r\n\r\n\r\n\r\n\r\n\r\n\r\n","appraise":4.0,"docType":1,"geography":"111","advisoryType":1,"serviceIntroduce":"111","depId":2,"updateTimestamp":null,"createtime":1414861200000,"buyCount":0,"replyCount":0,"serviceRange":null},{"id":169,"imAccount":"279","name":"时春艳","phone":"15611223341","headImg":"http://219.232.241.117/M00/01/2F/2-jxdVRu9cKzYzRPAAC8YpiXTDU011.png","age":44,"sex":1,"status":1,"hospital":"北大妇产儿童医院","place":"主任医师","specialty":"围产医学、产科超声；早产的诊治及相关研究和胎儿畸形的超声产前诊断；诊断和处理各种难产、早产及各种高危妊娠；胎儿畸形的超声诊断和产前诊断。","price":99,"introduce":"时春艳 北大妇产儿童医院 主任医师\r\n\r\n擅长：围产医学、产科超声；早产的诊治及相关研究和胎儿畸形的超声产前诊断；诊断和处理各种难产、早产及各种高危妊娠；胎儿畸形的超声诊断和产前诊断。\r\n\r\n现任北京医科大学第一医院妇产科主任医师。         \r\n中华医学会妇产科分会学术秘书。                  \r\n中华医学会妇产科分会产科学组委员及秘书。         \r\n中华围产医学杂志等杂志的编委。\r\n\r\n\r\n\r\n\r\n\r\n\r\n\r\n\r\n\r\n\r\n\r\n\r\n\r\n\r\n\r\n\r\n\r\n\r\n\r\n\r\n","appraise":4.0,"docType":1,"geography":"111","advisoryType":1,"serviceIntroduce":"111","depId":2,"updateTimestamp":null,"createtime":1414861200000,"buyCount":0,"replyCount":0,"serviceRange":null},{"id":160,"imAccount":"270","name":"王歆丽","phone":"15611223341","headImg":"http://219.232.241.117/M00/01/2E/2-jxdVRu77TDsa37AADfhyQLQLo874.png","age":44,"sex":1,"status":1,"hospital":"北京天坛医院","place":"副主任医师","specialty":"高危妊娠的管理，各种产前常见并发症及合并症的处理。","price":99,"introduce":"王歆丽 北京天坛医院 副主任医师\r\n\r\n擅长：高危妊娠的管理，各种产前常见并发症及合并症的处理。\r\n\r\n1989年毕业于山东医科大学临床医学系，从事妇产科临床工作21年余年。\r\n\r\n\r\n\r\n\r\n\r\n","appraise":4.0,"docType":1,"geography":"111","advisoryType":1,"serviceIntroduce":"111","depId":2,"updateTimestamp":null,"createtime":1414861200000,"buyCount":0,"replyCount":0,"serviceRange":null},{"id":156,"imAccount":"266","name":"高婉丽","phone":"15611223341","headImg":"http://219.232.241.117/M00/01/2E/2-jxdVRu7ZrycGc_AADFZBwLMro651.png","age":44,"sex":1,"status":1,"hospital":"北京天坛医院","place":"主任医师","specialty":"高危妊娠的管理，各种产前常见并发症及合并症的处理；更年期疾病的诊断和治疗；更年期综合征的药物治疗：激素或植物药治疗更年期出现的潮热、出汗、睡眠障碍、抑郁","price":99,"introduce":"高婉丽 北京天坛医院 主任医师\r\n\r\n擅长：高危妊娠的管理，各种产前常见并发症及合并症的处理；更年期疾病的诊断和治疗；更年期综合征的药物治疗：激素或植物药治疗更年期出现的潮热、出汗、睡眠障碍、抑郁\r\n专业特长：\r\n一、更年期疾病的诊断和治疗 \r\n1、擅长更年期综合征的药物治疗：激素或植物药治疗更年期出现的潮热、出汗、睡眠障碍、抑郁、烦躁、骨痛等相关症状。\r\n2、擅长乳腺癌妇女合并妇科疾病的诊治：如乳腺癌术后出现潮热、出汗等症状的缓解，服用他莫西芬后产生子宫内膜病变等的诊治。\r\n 3、擅长更年期子宫内膜病变的药物及微创手术治疗。\r\n4、擅长更年期异常子宫出血的诊治。\r\n5、擅长围绝经期骨质疏松症的预防及治疗。\r\n\r\n二、妇科疾病的微创治疗 擅长子宫肌瘤、子宫内膜病变、卵巢肿瘤等各类妇科常见病、多发病的宫腔镜手术、腹腔镜手术治疗。\r\n从事妇产科临床、教学、科研工作近20年，在更年期疾病诊治方面有丰富的临床经验，并擅长子宫肌瘤、子宫内膜病变、卵巢肿瘤等各类妇科微创手术。\r\n1991年8月毕业于哈尔滨医科大学医学系，获医学学士学位。\r\n2005年6月毕业于首都医科大学，获妇产科硕士学位。\r\n2007年赴北京协和医院妇产科进修妇科内分泌专业。\r\n工作经历\r\n1991年08月--1996年10月，北京天坛医院妇产科住院医师\r\n1996年11月--2005年10月，北京天坛医院妇产科主治医师\r\n2005年10月--至今，北京天坛医院妇产科副主任医师\r\n\r\n","appraise":4.0,"docType":1,"geography":"111","advisoryType":1,"serviceIntroduce":"111","depId":2,"updateTimestamp":null,"createtime":1414861200000,"buyCount":0,"replyCount":0,"serviceRange":null}]},"timestamp":1456190680985,"exception":null}