{"status":200,"message":"请求成功","body":{"pageSize":20,"pageNum":1,"totalCount":95,"totalPage":5,"list":[{"id":75,"imAccount":"189","name":"范秀红","phone":"15304700636","headImg":"http://219.232.241.117/M00/00/68/2-jv6FJ55L3A27VuAAAQE1-UCmM976.png","age":0,"sex":2,"status":2,"hospital":"内蒙古呼伦贝尔市传染病院","place":"主治医师","specialty":"精神及心理疾病，和内科各科疾病。","price":0,"introduce":"范秀红，主治医师，毕业于内蒙古医科大学。曾在内科和精神科多年工作经历。现有精神科、全科中级职称。擅长精神及心理疾病，和内科各科疾病。","appraise":4.0,"docType":2,"geography":"111","advisoryType":1,"serviceIntroduce":"111","depId":1,"updateTimestamp":null,"createtime":1414857600000,"buyCount":0,"replyCount":0,"serviceRange":null},{"id":66,"imAccount":"180","name":"王云鹏","phone":"15166357150","headImg":"http://219.232.241.117/M00/00/68/2-jv6FJ6AY7gyBNxAACIa9pIw50263.png","age":0,"sex":1,"status":2,"hospital":"聊城市第二人民医院","place":"主治医师","specialty":"冠心病，心律失常，心衰和先天性心脏病的诊断与介入治疗。","price":0,"introduce":"2009-2012毕业于滨州医学院心内科研究生。师从著名教授马建群，曾多此参加国内介入心脏病学会议。","appraise":4.0,"docType":2,"geography":"111","advisoryType":1,"serviceIntroduce":"111","depId":1,"updateTimestamp":null,"createtime":1414857600000,"buyCount":0,"replyCount":0,"serviceRange":null},{"id":37,"imAccount":"150","name":"郑庆芬","phone":"15937356376","headImg":" ","age":0,"sex":2,"status":2,"hospital":"新乡医学院一附院","place":"主治医师","specialty":"消化系统常见病的诊治","price":0,"introduce":"新乡医学院一附院工作5年，目前在读博士","appraise":4.0,"docType":2,"geography":"111","advisoryType":1,"serviceIntroduce":"111","depId":1,"updateTimestamp":null,"createtime":1414857600000,"buyCount":0,"replyCount":0,"serviceRange":null},{"id":95,"imAccount":"111","name":"涂小明","phone":"15910639353","headImg":"http://219.232.241.117/M00/01/24/2-jxdVRfHJqRzvuSAAAUO-LFg7s175.png","age":50,"sex":2,"status":2,"hospital":"北京朝阳水锥子城建医院","place":"住院医师","specialty":"擅长产前检查、诊断，剖宫产手术等；妇科常见病的诊断和治疗","price":0,"introduce":"住院实习医生","appraise":4.0,"docType":2,"geography":"111","advisoryType":1,"serviceIntroduce":"111","depId":1,"updateTimestamp":null,"createtime":1414857600000,"buyCount":0,"replyCount":0,"serviceRange":null},{"id":85,"imAccount":"199","name":"樊琪","phone":"15062829655","headImg":"http://219.232.241.117/M00/00/7B/2-jv6FMIpqmAfZnnAAAxKjAKFNE1140630x320x320","age":0,"sex":2,"status":2,"hospital":"扬州市第一人民医院","place":"医师","specialty":"医学影像检查，B超报告解读。","price":0,"introduce":"樊琪，女，超声科医师，现在工作于扬州市第一人民医院。","appraise":4.0,"docType":2,"geography":"111","advisoryType":1,"serviceIntroduce":"111","depId":1,"updateTimestamp":null,"createtime":1414857600000,"buyCount":0,"replyCount":0,"serviceRange":null},{"id":50,"imAccount":"164","name":"范尉文","phone":"18801336613","headImg":"http://219.232.241.117/M00/00/68/2-jv6FJ59imh227UAAAqDyxDM4U442.png","age":56,"sex":1,"status":2,"hospital":"武警北京总队第三医院","place":"主任医师","specialty":"失眠、抑郁、焦虑、精神分裂、植物神经紊乱等精神疾病","price":0,"introduce":"世卫盟(北京)疑难病研究院研究员\r\n\r\n　　武警北京总队第三医院精神科专家\r\n\r\n　　从医经历\r\n\r\n　　毕业于第三军医大学医疗系，先后在国内多家著名三甲医院从事精神疾病的治疗四十余年，现任武警北京市总队第三医院中医精神科主任，享受世卫盟特殊津贴。\r\n\r\n　　范主任多年来致力于精神障碍等的临床、科研、教学研究和治疗工作，拥有丰富的临床经验，在中西医结合治疗精神疾病方面业绩显着，在国内精神内科治疗领域享有盛名，迄今为止，已使数以千计的患者恢复精神健康并顺利回归正常生活。\r\n\r\n　　范尉文中医底蕴深厚，临床经","appraise":4.0,"docType":2,"geography":"111","advisoryType":1,"serviceIntroduce":"111","depId":1,"updateTimestamp":null,"createtime":1414857600000,"buyCount":0,"replyCount":0,"serviceRange":null},{"id":20,"imAccount":"133","name":"李继华","phone":"13513179491","headImg":"http://219.232.241.117/M00/00/6B/2-jv6FKC5svhLtGIAAAq5Y5v_Og7257605x320x320","age":0,"sex":1,"status":2,"hospital":"河间市中医院","place":"主治医师","specialty":"擅长中医妇科阴道炎，盆腔炎，孕期保健，产科咨询，产科合并症的诊断与治疗。","price":0,"introduce":"李继华，男，主治医师，毕业于陕西省中医学院。擅长中医妇科阴道炎，盆腔炎，孕期保健，产科咨询，产科合并症的诊断与治疗。","appraise":4.0,"docType":2,"geography":"111","advisoryType":1,"serviceIntroduce":"111","depId":2,"updateTimestamp":null,"createtime":1414857600000,"buyCount":0,"replyCount":0,"serviceRange":null},{"id":11,"imAccount":"124","name":"石磊","phone":"18968302672","headImg":"http://219.232.241.117/M00/00/69/2-jv6FJ6H06iOe5MAABs097NMeE598.png","age":0,"sex":2,"status":2,"hospital":"宁波大学医学院附属医院","place":"副主任医师","specialty":"对脱发、痤疮、扁平疣、过敏性皮肤病（如湿疹、慢性荨麻疹）、银屑病、白癜风及天疱疮等疾病的治疗。","price":0,"introduce":"石磊，女，副主任医师，医学硕士。从事皮肤性病临床诊疗工作10余年，擅长运用中西医结合治疗各种疑难皮肤病，尤其对脱发、痤疮、扁平疣、过敏性皮肤病（如湿疹、慢性荨麻疹）、银屑病、白癜风及天疱疮等疾病有独到的研究。曾获省科技进步奖，在国家、省市级刊物上发表论文10篇。","appraise":4.0,"docType":2,"geography":"111","advisoryType":1,"serviceIntroduce":"111","depId":6,"updateTimestamp":null,"createtime":1414857600000,"buyCount":0,"replyCount":0,"serviceRange":null},{"id":31,"imAccount":"144","name":"李旭斌","phone":"13633593292","headImg":"http://219.232.241.117/M00/00/6A/2-jv6FJ7J8izplvGAABpEnkJXdU174.png","age":0,"sex":1,"status":2,"hospital":"中信机电制造公司总医院","place":"副主任医师","specialty":"儿科常见病多发病。","price":0,"introduce":"副主任医师，从事儿科临床多年。现工作于中信机电制造公司总医院。","appraise":4.0,"docType":2,"geography":"111","advisoryType":1,"serviceIntroduce":"111","depId":6,"updateTimestamp":null,"createtime":1414857600000,"buyCount":0,"replyCount":0,"serviceRange":null},{"id":70,"imAccount":"184","name":"张俊杰","phone":"18102457976","headImg":"http://219.232.241.117/M00/00/68/2-jv6FJ44ybRNYjaAAARdtdVANc3609903x148x148","age":0,"sex":1,"status":2,"hospital":"辽宁中医药大学附属医院沈本医院","place":"住院医师","specialty":"中医内科,中医养生,亚健康,西医内科。","price":0,"introduce":"2005~2010就读辽宁中医药大学，2010~2013就读于辽宁中医药大学研究生学院。2013年7月于辽宁中医药大学附属医院沈本医院工作。\r\n","appraise":4.0,"docType":2,"geography":"111","advisoryType":1,"serviceIntroduce":"111","depId":5,"updateTimestamp":null,"createtime":1414857600000,"buyCount":0,"replyCount":0,"serviceRange":null},{"id":108,"imAccount":"222","name":"李春生","phone":"15010489251","headImg":"http://219.232.241.117/M00/00/C1/2-jv6FOtNVySzgyyAALFaLWGejQ320.png","age":54,"sex":1,"status":2,"hospital":"航天中心医院","place":"副主任医师","specialty":"内分泌科、老年病以及感染性疾病","price":0,"introduce":"1982年毕业于白求恩医科大学临床专业；\r\n1982、12—1988、12在解放军总医院心内科工作；\r\n1988、12至今在航天中心医院工作，先后从事血液科、内分泌科、急诊科、老年病以及感染性疾病；业余时间从事健康教育、健康咨询、健康管理等工作","appraise":4.0,"docType":2,"geography":"111","advisoryType":1,"serviceIntroduce":"111","depId":1,"updateTimestamp":null,"createtime":1414857600000,"buyCount":0,"replyCount":0,"serviceRange":null},{"id":88,"imAccount":"202","name":"尹建新","phone":"13180320374","headImg":"http://219.232.241.117/M00/00/6D/2-jv6FKQAMSgeGWHAAAqO6ma6GM0907680x320x320","age":0,"sex":2,"status":2,"hospital":"河间市中医院","place":"主治医师","specialty":"擅长妇产科常见病多发病的诊断和治疗。","price":0,"introduce":"毕业于河北医科大学，从事妇产科工作二十余年，有丰富的临床经验。","appraise":4.0,"docType":2,"geography":"111","advisoryType":1,"serviceIntroduce":"111","depId":2,"updateTimestamp":null,"createtime":1414857600000,"buyCount":0,"replyCount":0,"serviceRange":null},{"id":61,"imAccount":"175","name":"詹磊磊","phone":"13424722006","headImg":"http://219.232.241.117/M00/00/65/2-jv6FJXXCaBT9UoAABHZyCuV18128.png","age":45,"sex":1,"status":2,"hospital":"中山大学附属第一医院","place":"副主任医师","specialty":"擅长慢性胃炎、便秘、腹胀腹痛、消化不良、病毒性肝病、脂肪肝、消化系统肿瘤等诊治","price":0,"introduce":"医学博士，国家青年科技人才，广东省消化分会学组委员，《中山大学学报》、《消化介入与诊疗》 等消化领域多个杂志编委.\r\n诊疗专长：\r\n·擅长慢性胃炎、便秘、腹胀腹痛、消化不良、病毒性肝病、脂肪肝、消化系统肿瘤等诊治；\r\n·对消化道息肉、食管静脉曲张套扎、食管癌扩张、ERCP等内镜下治疗有较高的水准；\r\n·对消化内科疑难病有独到的见解；","appraise":4.0,"docType":2,"geography":"111","advisoryType":1,"serviceIntroduce":"111","depId":1,"updateTimestamp":null,"createtime":1414857600000,"buyCount":0,"replyCount":0,"serviceRange":null},{"id":80,"imAccount":"194","name":"姚红丽","phone":"13666607346","headImg":"http://219.232.241.117/M00/00/6C/2-jv6FKDSETjvQENAAAP5ZF4j64857.png","age":0,"sex":2,"status":2,"hospital":"杭州市第一人民医院","place":"主治医师","specialty":"妇科肿瘤，妇科炎症等常见疾病的诊治。","price":0,"introduce":"姚红丽，女，已经取得主治医师资格，2008~2011年硕士就读于湘雅医学院。2011年毕业后工作于杭州市第一人民医院至今。","appraise":4.0,"docType":2,"geography":"111","advisoryType":1,"serviceIntroduce":"111","depId":3,"updateTimestamp":null,"createtime":1414857600000,"buyCount":0,"replyCount":0,"serviceRange":null},{"id":55,"imAccount":"169","name":"王晗 ","phone":"13426069070","headImg":"http://219.232.241.117/M00/00/68/2-jv6FJ598vTYoZFAABmaHZKBLE641.png","age":30,"sex":1,"status":2,"hospital":"中国人民解放军第二炮兵总医院","place":"主治医师","specialty":"于膝、髋关节常见疾病如膝关节骨性关节炎、前交叉韧带损伤、半月板损伤、股骨头坏死及髋关节骨性关节炎等疾病的保守方法及手术治疗方法","price":0,"introduce":"擅长：于膝、髋关节常见疾病如膝关节骨性关节炎、前交叉韧带损伤、半月板损伤、股骨头坏死及髋关节骨性关节炎等疾病的保守方法及手术治疗方法。\r\n\r\n辽宁医学院临床医学专业，学士学位。毕业后一直工作于第二炮兵总医院骨科关节组，熟悉于膝、髋关节常见疾病如膝关节骨性关节炎、前交叉韧带损伤、半月板损伤、股骨头坏死及髋关节骨性关节炎等疾病的保守方法及手术治疗方法。\r\n","appraise":4.0,"docType":2,"geography":"111","advisoryType":1,"serviceIntroduce":"111","depId":1,"updateTimestamp":null,"createtime":1414857600000,"buyCount":0,"replyCount":0,"serviceRange":null},{"id":43,"imAccount":"157","name":"韦明","phone":"13901107899","headImg":"http://219.232.241.117/M00/00/39/2-jv6FHVHqfSMw-pAAA_eQOL0-c664.png","age":58,"sex":1,"status":2,"hospital":"空军总医院","place":"副主任医师","specialty":"小儿脑瘫及运动功能发育迟缓的康复研究及治疗；小儿包茎气囊扩张；","price":0,"introduce":"医学博士，空军总医院儿科主治医师。现任北京金童阳光抽动症研究所附属京海中医医院小儿脑瘫及神经系统疾病康复治疗科主任。解放军西安第四军医大学儿科学兼职副教授，儿科学博士，空军儿科学术委员会主任秘书，空军总医院儿科康复室主任。\r\n诊疗专长：\r\n●  小儿脑瘫及运动功能发育迟缓的康复研究及治疗；\r\n●  小儿包茎气囊扩张；\r\n","appraise":4.0,"docType":2,"geography":"111","advisoryType":1,"serviceIntroduce":"111","depId":6,"updateTimestamp":null,"createtime":1414857600000,"buyCount":0,"replyCount":0,"serviceRange":null},{"id":100,"imAccount":"214","name":"伍洁","phone":"13811086285","headImg":"http://219.232.241.117/M00/00/C1/2-jv6FOqPTGC6yp8AACnD5W0LX8830.png","age":0,"sex":2,"status":2,"hospital":"新世纪妇儿医院","place":"主治医师      ","specialty":"新生儿常见疾病的诊治，如黄疸、湿疹、肺炎、脐炎等。儿科常见疾病，如肺炎、腹泻等。婴幼儿早期辅食添加。","price":0,"introduce":"从事儿科临床工作近10年，精心于儿童疾病诊治与保健工作。愿用我的努力换天下宝宝的健康。","appraise":4.0,"docType":2,"geography":"111","advisoryType":1,"serviceIntroduce":"111","depId":6,"updateTimestamp":null,"createtime":1414857600000,"buyCount":0,"replyCount":0,"serviceRange":null},{"id":14,"imAccount":"127","name":"王明辉","phone":"13703179667","headImg":" ","age":0,"sex":1,"status":2,"hospital":"献县中医院","place":"主治医师","specialty":"擅长妇产疾病。","price":0,"introduce":"毕业于承德医学院。","appraise":4.0,"docType":2,"geography":"111","advisoryType":1,"serviceIntroduce":"111","depId":2,"updateTimestamp":null,"createtime":1414857600000,"buyCount":0,"replyCount":0,"serviceRange":null},{"id":33,"imAccount":"146","name":"冯世纶","phone":"13811785992","headImg":"http://219.232.241.117/M00/00/68/2-jv6FJ56ETx0k9sAAA6Kk9Gh1g161.png","age":58,"sex":1,"status":2,"hospital":"树德堂国医馆","place":"主任医师","specialty":"擅长慢性前列腺炎、男女不育不孕、内分泌、胃炎、糖尿病、风湿、咳喘、皮肤病等","price":0,"introduce":"主任医师、教授。1965年毕业于北京中医药大学，先后任职于北京中医药大学附属医院、卫生部中日友好医院。一直从事中医的临床、科研、教学工作，先后师承董建华、赵绍琴、胡希恕等著名中医，而专注于经方研究，在国际经方界享有极高的声誉。整理总结了经方大师胡希恕先生对经方研究成果，并考证了经方理论体系的形成，出版《经方传真》、《经方传灯》、《中国汤液经方》、《胡希恕讲伤寒杂病论》等书。80年代从事气管炎研究，获国家科技大会奖。90年代从事类风湿研究，获卫生部科技进步奖。 \r\n诊疗专长：\r\n●  擅长慢性前列腺炎、男女","appraise":4.0,"docType":2,"geography":"111","advisoryType":1,"serviceIntroduce":"111","depId":2,"updateTimestamp":null,"createtime":1414857600000,"buyCount":0,"replyCount":0,"serviceRange":null},{"id":22,"imAccount":"135","name":"齐金花","phone":"15133758587","headImg":"http://219.232.241.117/M00/00/6B/2-jv6FKBy_bjvRO9AAAfn6TlfPI647.png","age":0,"sex":2,"status":2,"hospital":"河间市中医院","place":"主治医师","specialty":"妇科常见病的诊断及治疗，产前检查等等！","price":0,"introduce":"齐金花，毕业于内蒙古医学院，毕业后在河间市中医院妇产科工作，擅长妇科常见病的诊断及治疗产前检查等等！","appraise":4.0,"docType":2,"geography":"111","advisoryType":1,"serviceIntroduce":"111","depId":2,"updateTimestamp":null,"createtime":1414857600000,"buyCount":0,"replyCount":0,"serviceRange":null}]},"timestamp":1456190892158,"exception":null}